	1S	1M	1H
0	-0.0021002030747551137	-0.01260007799775098	-0.038412413642898935
1	-7.306402558212355e-05	-0.0016517356681771478	-0.011776757595034484
2	0.0	-0.0013216573293539026	-0.00945848596965539
3	0.0	-0.0011568625185743153	-0.008456002362784138
4	0.0	-0.0010270123045715708	-0.0068664913586054515
5	0.0	-0.0009372143828077383	-0.0058635870980896405
6	0.0	-0.0008650153445165175	-0.004670070280689166
7	0.0	-0.000798276422890254	-0.0037498078572672988
8	0.0	-0.0007460516050075937	-0.003715978809746905
9	0.0	-0.0007005439954088033	-0.003404723666997309
10	0.0	-0.0006550766757793535	-0.003306989317586595
11	0.0	-0.0006173732364382523	-0.0030030440377196493
12	0.0	-0.0005773924107898853	-0.002801868392096529
13	0.0	-0.0005437139373345113	-0.0024535368903004463
14	0.0	-0.0005132140362356629	-0.0023856274333719577
15	0.0	-0.000484373511227254	-0.0023045594282338545
16	0.0	-0.000455102236235545	-0.0022216670360925405
17	0.0	-0.00042692424346968513	-0.002143155923815385
18	0.0	-0.00040354598279173097	-0.0019280584840645233
19	0.0	-0.00038113344040983764	-0.0017630225437461854
20	0.0	-0.0003640881242075622	-0.0017092720041429921
21	0.0	-0.000345109176378332	-0.0016339706054617643
22	0.0	-0.000323298392541278	-0.001567434611931755
23	0.0	-0.0003022604807119278	-0.0015341706000072885
24	0.0	-0.00027860101911767463	-0.0015014680283204828
25	0.0	-0.00025751009271995917	-0.0014878563123451316
26	0.0	-0.00024100837144067853	-0.0013581496486360911
27	0.0	-0.00022608848305964648	-0.001318801646547669
28	0.0	-0.000209393132001856	-0.0012496750997141423
29	0.0	-0.00019344209133843163	-0.0010993649414519136
30	0.0	-0.00017941318619782993	-0.0009989910801292633
31	0.0	-0.00016405159251416844	-0.0008707996312206089
32	0.0	-0.0001501545203510224	-0.0008092897028556535
33	0.0	-0.00013946661450208836	-0.0007480959159246526
34	0.0	-0.00012564332917903707	-0.0007055262443849175
35	0.0	-0.00011591206355887065	-0.0006453706916775825
36	0.0	-0.0001060496579419823	-0.0006236686626144562
37	0.0	-9.494939888695652e-05	-0.0005952325668066372
38	0.0	-8.581232506409409e-05	-0.0005789012548922013
39	0.0	-7.60726193793082e-05	-0.0005100076155461908
40	0.0	-6.613822743530839e-05	-0.00046867175956035747
41	0.0	-5.8658816215473315e-05	-0.0004335519085549344
42	0.0	-4.938314448235557e-05	-0.0003039269914489839
43	0.0	-4.012482811399874e-05	-0.0002654654921933763
44	0.0	-3.186469728519547e-05	-0.00021023742507677125
45	0.0	-2.3848246703944694e-05	-0.0001393442568632439
46	0.0	-1.5232163953164956e-05	-4.347971030180535e-05
47	0.0	-8.042123738194455e-06	-3.6022934068447847e-06
48	0.0	-2.8226484501558956e-06	8.443510909313715e-05
49	0.0	0.0	0.00011305332823182021
50	0.0	0.0	0.0001474279214661589
51	0.0	0.0	0.00016207242357582315
52	0.0	4.100168099805401e-06	0.00020601657474017548
53	0.0	1.1389266306118803e-05	0.0003882696744875252
54	0.0	1.7459828520163263e-05	0.0004776974453613292
55	0.0	2.444592751066346e-05	0.0004994023653582148
56	0.0	3.133171080561327e-05	0.0005101579385651435
57	0.0	4.002087526707719e-05	0.0005635277614310639
58	0.0	4.90181718666749e-05	0.0006789630435884408
59	0.0	6.033273826590905e-05	0.0007978550149063768
60	0.0	6.923877225530894e-05	0.0009139105202599751
61	0.0	7.904809747221627e-05	0.0010189874948827666
62	0.0	9.139574501102031e-05	0.0011066056175134528
63	0.0	0.0001004573940470155	0.0011791174075068667
64	0.0	0.00011130565212849502	0.001194059125725868
65	0.0	0.0001225828229850068	0.0012888418038225044
66	0.0	0.0001341786141762391	0.001478725441831572
67	0.0	0.00014601599801769238	0.0015108627593167336
68	0.0	0.0001572122796776565	0.0015549363158328866
69	0.0	0.00017095164011717392	0.0016220211982291323
70	0.0	0.00018493691111154363	0.001717101170367319
71	0.0	0.00019795377732655383	0.0018044940653965489
72	0.0	0.00021510629992415713	0.001859301264051857
73	0.0	0.00023302080463160957	0.0020286390893436267
74	0.0	0.00025078762631500776	0.0022048384029130204
75	0.0	0.0002688063574737831	0.002363568350877643
76	0.0	0.00028861011507443025	0.002465066463390322
77	0.0	0.00030910337223642335	0.0025118858629438745
78	0.0	0.0003288870088580476	0.002772914511662904
79	0.0	0.00035074902509885553	0.0029380837300701764
80	0.0	0.0003737309611483667	0.0029995141074859785
81	0.0	0.00039592732297759185	0.0030712155423434843
82	0.0	0.00042267765238295575	0.00318192947025238
83	0.0	0.00044464942145838726	0.0034790081800443865
84	0.0	0.00047184300135788787	0.003683418425832956
85	0.0	0.0005020688053580247	0.004127792253095304
86	0.0	0.0005321179134231402	0.0042936893201973225
87	0.0	0.0005647904312188929	0.004458273439919555
88	0.0	0.0005996624501952042	0.005185061965833486
89	0.0	0.0006356917055243103	0.005400353658559295
90	0.0	0.0006812364319786382	0.005602222366733911
91	0.0	0.0007275691237714541	0.005828166252617457
92	0.0	0.0007736148674536558	0.00624206825850554
93	0.0	0.0008441160152226636	0.006505939716664864
94	0.0	0.0009215472923963254	0.006742800022174324
95	0.0	0.0010116465573754548	0.00807123015914788
96	0.0	0.0011294363396019596	0.008567017473237256
97	0.0	0.0012659150262647164	0.010109687510822193
98	0.0	0.0014401719966365347	0.010982276487853214
99	7.240332753062707e-05	0.0018132390674200452	0.011404543596325405
100	0.0025284348206475737	0.0058683332655686815	0.014401846046087963
