	1S	1M	1H
0	-0.005299942155227888	-0.01747011917734831	-0.06171656799559855
1	-0.0003805450872428184	-0.0034634987387389756	-0.02214027350015261
2	-0.00027145094896758204	-0.0027857834546568027	-0.016778296499373225
3	-0.0002099000278821961	-0.002416312244657831	-0.015011684539920384
4	-0.0001653407678988028	-0.0021496551053759696	-0.013094402450106268
5	-0.00013453599378096537	-0.0019646529947920156	-0.01257015057459724
6	-0.00010564963436672238	-0.0018109779264909552	-0.01212633174446379
7	-8.569169195198896e-05	-0.0016855337535074963	-0.010624368940676246
8	-6.085630263512165e-05	-0.0015888824159041495	-0.009824516798413542
9	-4.497707667958762e-05	-0.0015003233285939578	-0.008611302878620932
10	-2.9405714194719045e-05	-0.0014195973693800544	-0.00817327186103165
11	-9.897092980709622e-06	-0.0013485986428476205	-0.008034283142357249
12	0.0	-0.001268666911452021	-0.007718247619583636
13	0.0	-0.0012083653408575456	-0.007266092867562206
14	0.0	-0.0011580010971687792	-0.007173956198549658
15	0.0	-0.0011064147736162436	-0.006385067156088337
16	0.0	-0.0010548688634944357	-0.0058700851480940714
17	0.0	-0.0010049105473940577	-0.005709592124423695
18	0.0	-0.0009562619268674698	-0.005522471147199847
19	0.0	-0.0009087629554890352	-0.00546100704632344
20	0.0	-0.0008629791753662186	-0.005313785021536788
21	0.0	-0.0008232498345331107	-0.005189526704750988
22	0.0	-0.0007833789353470765	-0.004780658144294398
23	0.0	-0.0007492682888813872	-0.004418941721418093
24	0.0	-0.0007039951302401759	-0.0042280922396347575
25	0.0	-0.0006699926506996967	-0.003833146124727488
26	0.0	-0.0006366069156041566	-0.0036795535736143872
27	0.0	-0.0006009606146071887	-0.003554778374914959
28	0.0	-0.0005699302520121829	-0.0033765910270943506
29	0.0	-0.0005388985149933301	-0.003118995192919326
30	0.0	-0.0005057521390682609	-0.0027481580402428985
31	0.0	-0.00047063857181199776	-0.002669284441803992
32	0.0	-0.00044117010831784315	-0.0024753310691775048
33	0.0	-0.0004103306756889802	-0.0021992255661439876
34	0.0	-0.0003794318462659252	-0.0020280305221036165
35	0.0	-0.0003498426065100925	-0.0017449764408283678
36	0.0	-0.0003202513144442065	-0.0013657125642578196
37	0.0	-0.0002933106198372237	-0.0013084457629357494
38	0.0	-0.0002648013019989493	-0.0012442189340447275
39	0.0	-0.00023942436765593712	-0.0011636192309276096
40	0.0	-0.00021179785875045096	-0.001139232393924572
41	0.0	-0.00018279789630379592	-0.0008346664480407976
42	0.0	-0.0001618472266553783	-0.0005423887510307044
43	0.0	-0.00013583964704541146	-0.00021903187951375426
44	0.0	-0.00010487989693694014	-9.162174913866371e-05
45	0.0	-8.092488026198436e-05	3.299485009670158e-05
46	0.0	-5.808185907661299e-05	5.7774022319336855e-05
47	0.0	-3.065114419098624e-05	0.0001516112574116054
48	0.0	-1.124715932356856e-05	0.0003684488272949336
49	0.0	4.334415282294402e-06	0.0005160172327718435
50	0.0	3.0538489874776253e-05	0.0005737758906912971
51	0.0	5.6651661861275554e-05	0.000744511400650565
52	0.0	7.93189212530354e-05	0.0008771012584154205
53	0.0	0.00010090528801740766	0.0009459851243999953
54	0.0	0.00012489285336620527	0.001091992760954217
55	0.0	0.00015228049102827883	0.0014066125572874124
56	0.0	0.00018025131498838223	0.0019657569587898226
57	0.0	0.00020623833365859928	0.0022169159881277587
58	0.0	0.00023601032735056187	0.0023010811158601994
59	0.0	0.000256704143381643	0.0025050963816598947
60	0.0	0.0002838577382041406	0.0026058763463311157
61	0.0	0.0003152405495707655	0.002770921383105516
62	0.0	0.00033595656382979556	0.0032286356198706484
63	0.0	0.00036580378932301607	0.003424086615954813
64	0.0	0.00039300281664533365	0.003518682789825238
65	0.0	0.0004205681803079122	0.0035657612824112174
66	0.0	0.0004477183738272619	0.003620671134142554
67	0.0	0.00047629102475100777	0.0038203121728922333
68	0.0	0.0005055447869414209	0.00401784337763008
69	0.0	0.0005301185702572965	0.004205883459386965
70	0.0	0.0005562710087918309	0.0042919815722420205
71	0.0	0.0005916532892141025	0.004322924366190428
72	0.0	0.0006208713447879965	0.004450994442785851
73	0.0	0.0006513433133855706	0.004816999781742015
74	0.0	0.0006856106926092576	0.005234287192634154
75	0.0	0.0007185888641969562	0.0056140162575485375
76	0.0	0.000751566869622966	0.005929286207964753
77	0.0	0.0007811659661428228	0.0063709609191074466
78	0.0	0.0008212302908513091	0.006665465183600394
79	0.0	0.0008629045778551683	0.007204611174404846
80	0.0	0.0009006853336885447	0.008226222156236316
81	0.0	0.0009399257655315977	0.008426148718038625
82	0.0	0.0009891965031571636	0.008545412270104325
83	0.0	0.0010282227731284376	0.008768658598199558
84	0.0	0.0010716623088060121	0.009357534261839388
85	0.0	0.001123404206557532	0.009665367079144359
86	0.0	0.0011745196659132073	0.009929055448846657
87	0.0	0.00123060040418677	0.010861986335823047
88	0.0	0.0012994508527345515	0.011346162947492654
89	1.4508105619936963e-05	0.0013735613341271109	0.011994082504671908
90	3.0157853748646858e-05	0.0014487585712599452	0.012262307689781295
91	4.56447488838707e-05	0.0015386542710349692	0.012622430182434754
92	6.127563885804044e-05	0.0016341481939613268	0.013361133941254004
93	8.662490731000481e-05	0.0017457343955062671	0.014149454744393606
94	0.00010569246435832899	0.0018657561590993811	0.015601705155397976
95	0.00013420768197415216	0.0019837278253454576	0.016866994923689545
96	0.00016465450990411386	0.0021432736431792067	0.018801536342816554
97	0.00020806746927887212	0.002431885933467368	0.02011669028514688
98	0.0002684363630548425	0.0028222272018004627	0.02104346164431524
99	0.00037492082510824035	0.0034441824137035402	0.023303839010664212
100	0.005380908822843589	0.024199736276729	0.035615946854690606
