	1S	1M	1H
0	-0.0038553219036534525	-0.016838324932484272	-0.035015491110055974
1	-0.00021775699238106295	-0.002442201414650529	-0.024826515457640037
2	-9.837946144554132e-05	-0.00179096280193066	-0.02037132705059194
3	-3.39739111757609e-05	-0.0014598073683747726	-0.016319969825760488
4	0.0	-0.0012904815574961326	-0.012338102170304356
5	0.0	-0.0011415194264293715	-0.010996931280624112
6	0.0	-0.0010138792424356359	-0.010194674070811217
7	0.0	-0.0009495533621623874	-0.009569803937855312
8	0.0	-0.0008842756656952577	-0.00836480834412339
9	0.0	-0.0008150984361357805	-0.007244318269785094
10	0.0	-0.0007642011041267715	-0.00672637627453111
11	0.0	-0.0007209249794040218	-0.0058103989181940915
12	0.0	-0.0006796428916119889	-0.005377707195314718
13	0.0	-0.0006338581797546616	-0.005287993501460668
14	0.0	-0.0005980555324260339	-0.005214422417489699
15	0.0	-0.0005669403542012952	-0.005109148335744146
16	0.0	-0.0005356946137908202	-0.004712637254159362
17	0.0	-0.0005054880569479935	-0.0044784397280936425
18	0.0	-0.0004820923640301289	-0.004195356115973308
19	0.0	-0.0004580941571530717	-0.004036063819449451
20	0.0	-0.0004333759675935411	-0.0038079641214029845
21	0.0	-0.0004125854074297563	-0.0035474439631119725
22	0.0	-0.0003870970864096112	-0.003524694907130199
23	0.0	-0.00036402850656093054	-0.0034536952768157428
24	0.0	-0.0003432294717219042	-0.0032517046904284013
25	0.0	-0.0003243397965581596	-0.0030876963843426697
26	0.0	-0.00030536145643112573	-0.002901560664868243
27	0.0	-0.0002860835649220528	-0.0027951167564721578
28	0.0	-0.00026880217915400186	-0.0026940121239021494
29	0.0	-0.0002542543073014103	-0.0024817917140719124
30	0.0	-0.00024115793704118096	-0.00237121769230384
31	0.0	-0.00022661329299885849	-0.002199816710612536
32	0.0	-0.00021267797621395075	-0.0019602745563065895
33	0.0	-0.0001968241337246024	-0.0018754744189908347
34	0.0	-0.00018027543755956717	-0.0018362592257488263
35	0.0	-0.00016599178766842939	-0.0017629866405885154
36	0.0	-0.00015434350822046916	-0.0015619138221376352
37	0.0	-0.00014041626771138182	-0.0015261888395807967
38	0.0	-0.00013000936568092756	-0.001497162503230376
39	0.0	-0.00011708086771558547	-0.0014404532803017679
40	0.0	-0.00010361188365965997	-0.0013092892207881683
41	0.0	-9.273275121088671e-05	-0.0011834597719609708
42	0.0	-8.348398307114422e-05	-0.0011264489940255328
43	0.0	-7.297529710280191e-05	-0.00085304273444171
44	0.0	-6.176304982307364e-05	-0.0007524852988979799
45	0.0	-5.039532802815768e-05	-0.0007038280689153852
46	0.0	-3.963987258791545e-05	-0.000683918025542991
47	0.0	-3.089071871971494e-05	-0.0006510475128538229
48	0.0	-2.24429331209297e-05	-0.0005828637146071181
49	0.0	-1.4209527851691826e-05	-0.0005518832516239037
50	0.0	-4.94118849869718e-06	-0.00040212452949117683
51	0.0	0.0	-0.0003286166403558543
52	0.0	6.132835172367734e-06	-0.00023807027488080814
53	0.0	1.5907087531141784e-05	-0.0001589507065444226
54	0.0	2.3384216333526276e-05	-0.00011696488969201468
55	0.0	3.329649299036457e-05	-7.404202805099121e-05
56	0.0	4.30236432421883e-05	-3.210473730734725e-05
57	0.0	5.4015088929966205e-05	5.3013820938760915e-05
58	0.0	6.427627772996658e-05	8.203131640004634e-05
59	0.0	7.379164290106875e-05	0.00013245101166371013
60	0.0	8.276541239511376e-05	0.00016066968820203104
61	0.0	9.280670502775035e-05	0.00020928949418696832
62	0.0	0.00010235246934857666	0.00032244787486639516
63	0.0	0.00011459325502243488	0.0005185355188730262
64	0.0	0.00012580860011497395	0.0006531895039116527
65	0.0	0.00013991176457400794	0.0007699781703139449
66	0.0	0.00015557084973115477	0.0008635937968364837
67	0.0	0.00017195510702601837	0.0009199064108890664
68	0.0	0.00018672538514135086	0.001075396020437545
69	0.0	0.00019983936922888	0.0012807757202113643
70	0.0	0.0002145867364700571	0.001328342096540824
71	0.0	0.00022824276219604033	0.0013607995366141633
72	0.0	0.00024092386930584908	0.001389220232869341
73	0.0	0.0002582316465883694	0.0015144320519859431
74	0.0	0.00027567893000826074	0.0015907531265582577
75	0.0	0.00029110168090590305	0.0016596854024825136
76	0.0	0.00031100865855765214	0.0017439269594177011
77	0.0	0.0003281702598801406	0.0019981082945034205
78	0.0	0.00034820787411977695	0.002243893916130224
79	0.0	0.00037321053490914976	0.0022828682954582737
80	0.0	0.0003968535752776781	0.002366740832437397
81	0.0	0.0004199047290386249	0.0023823408052905887
82	0.0	0.00044689164338221647	0.002509571440287392
83	0.0	0.00047428059385801636	0.002778306295876095
84	0.0	0.000508993547393768	0.002881700224760211
85	0.0	0.0005348506858295019	0.002912593284562359
86	0.0	0.0005663274729622405	0.003024055863100874
87	0.0	0.0006068938231405174	0.0031855014084334527
88	0.0	0.0006421047403962366	0.0033357139022707925
89	0.0	0.0006816437921073025	0.003743839012999396
90	0.0	0.0007320592114196114	0.004168024936556637
91	0.0	0.0007811439589406932	0.004657051342094047
92	0.0	0.0008397083131918939	0.005329674462225072
93	0.0	0.0009161587419364986	0.005493996716768975
94	0.0	0.0009876825213631826	0.005724961649660662
95	0.0	0.0010958248067932548	0.0060062358593760655
96	0.0	0.0012476271156463973	0.006966860609193767
97	2.1212860084574158e-05	0.0014170604798154803	0.010270652963139584
98	8.34701647754564e-05	0.0017337081689001907	0.011918371749972668
99	0.00020273227360945279	0.002394957268412841	0.013824775858109489
100	0.0025825468690645614	0.01239454899416037	0.015525804150025024
