	1S	1M	1H
0	-0.0021416307124765277	-0.010386958183489448	-0.016323782683575927
1	-7.076935534820027e-05	-0.0016641148288293961	-0.015255933827209434
2	0.0	-0.0013534235899455304	-0.0127424338500734
3	0.0	-0.0011773712639972166	-0.009137628517051835
4	0.0	-0.0010417277618366683	-0.008086937669091734
5	0.0	-0.0009531796237073787	-0.006958307791121004
6	0.0	-0.000883273470331547	-0.006586830108873041
7	0.0	-0.0008140037182369309	-0.006208783192240611
8	0.0	-0.0007582921672600662	-0.005891074911684964
9	0.0	-0.0007114972890488381	-0.005644163654723438
10	0.0	-0.0006664020499859257	-0.005262358525039279
11	0.0	-0.0006270344709534425	-0.005037072470427804
12	0.0	-0.0005924415321024944	-0.004733471051159137
13	0.0	-0.0005591203763688391	-0.004466790177316217
14	0.0	-0.0005280484864621515	-0.004172294658631915
15	0.0	-0.0005025405362406976	-0.004000936417677065
16	0.0	-0.00047516493358119134	-0.003630631212050637
17	0.0	-0.00045045547641899605	-0.003431957547122013
18	0.0	-0.0004253326521558387	-0.003168551890095728
19	0.0	-0.00040484376871263716	-0.0029893442826117852
20	0.0	-0.0003839810173458247	-0.0029575359486403666
21	0.0	-0.0003645564406119172	-0.0028238288571456305
22	0.0	-0.0003432085746915758	-0.002726874474992329
23	0.0	-0.0003237771164568625	-0.0025564478788394785
24	0.0	-0.00030377261760134556	-0.002344258971121631
25	0.0	-0.00028801628078878316	-0.0022014944664851543
26	0.0	-0.00026642769777524	-0.002034885702499429
27	0.0	-0.00025100589224669173	-0.0018267913478082062
28	0.0	-0.00023564415606390992	-0.0017433350560306943
29	0.0	-0.0002219397764166964	-0.0017023969109977465
30	0.0	-0.0002085400952886452	-0.0016636440591961232
31	0.0	-0.00019552232732671375	-0.001582417537935907
32	0.0	-0.0001817828609725147	-0.0015074157413145352
33	0.0	-0.00016814146478743682	-0.00141514567983834
34	0.0	-0.00015294427325587278	-0.0014028165977904817
35	0.0	-0.0001410645271175848	-0.0012671696643186737
36	0.0	-0.00012907238135817511	-0.0012207090035620774
37	0.0	-0.00011766419504667391	-0.0011494322780081822
38	0.0	-0.00010549997295392855	-0.0011359677701023618
39	0.0	-9.335739833213675e-05	-0.0010640519743189449
40	0.0	-8.088373035342043e-05	-0.0010204483320634507
41	0.0	-6.982209515137641e-05	-0.0010051289073031789
42	0.0	-5.7943430360087855e-05	-0.0009367970171953544
43	0.0	-4.915382161209014e-05	-0.0008898033665414827
44	0.0	-4.054876094808699e-05	-0.0007898155310702215
45	0.0	-3.1082117959257953e-05	-0.0007483651266730778
46	0.0	-2.2843323180765638e-05	-0.0005879044753033085
47	0.0	-1.3548268212464352e-05	-0.0004948851800814663
48	0.0	-5.606846855767952e-06	-0.0003607923097210987
49	0.0	-1.2153193442721033e-06	-0.0002628976870363377
50	0.0	0.0	-0.00012887719735599212
51	0.0	0.0	-1.914781561247799e-05
52	0.0	0.0	2.4791393753611605e-05
53	0.0	0.0	0.00011240675393686241
54	0.0	0.0	0.00016243867662390192
55	0.0	6.08310134753157e-07	0.00020867540425016943
56	0.0	7.352750856748383e-06	0.00023454639344830519
57	0.0	1.6609510497989086e-05	0.0002734432916487404
58	0.0	2.7881989100460007e-05	0.0003849657812771623
59	0.0	3.891648259335185e-05	0.0004918479191150184
60	0.0	4.8316890204835834e-05	0.0005495005857671487
61	0.0	5.9448498370791024e-05	0.0006389265944577452
62	0.0	7.080587589490593e-05	0.0007492937885655419
63	0.0	8.31356518454696e-05	0.0008582029699680574
64	0.0	9.415801151107851e-05	0.0010371873775482851
65	0.0	0.00010888177064968251	0.0010850704461700443
66	0.0	0.00012236260733461185	0.001125754825956924
67	0.0	0.00013658631219964698	0.0011711952713684304
68	0.0	0.00015286882369365708	0.001240009972793539
69	0.0	0.000169551534781016	0.0013148528198099725
70	0.0	0.00018383896683162864	0.0013520791507495523
71	0.0	0.00019993208907850474	0.0014480054010493854
72	0.0	0.00021617671064825045	0.0015857514371286018
73	0.0	0.00023175915523313993	0.001651312968569287
74	0.0	0.0002479432010771721	0.0016972868005001819
75	0.0	0.00026570188847491183	0.0017994371224339112
76	0.0	0.00028211298823799247	0.0018932479904628964
77	0.0	0.00029894562347108076	0.002022392299780658
78	0.0	0.0003168073427720053	0.0021517224067450764
79	0.0	0.0003356073525932324	0.002327511911594618
80	0.0	0.00036291034463840086	0.002459512307071421
81	0.0	0.0003863067126921955	0.002579905788245495
82	0.0	0.0004103452343633228	0.002807321339933275
83	0.0	0.0004360726022252148	0.0028830980687990183
84	0.0	0.00046166298058627055	0.003107755113331283
85	0.0	0.0004897492043013595	0.0031896978695163383
86	0.0	0.0005134239035523172	0.0032823293988016784
87	0.0	0.0005470114907821233	0.003655047419494764
88	0.0	0.0005805632883888201	0.003919374336086073
89	0.0	0.0006241952917138113	0.004101032641965655
90	0.0	0.000668306617296044	0.004604786726768874
91	0.0	0.0007239840604927416	0.004969950213879661
92	0.0	0.0007791484695536077	0.005259009508449327
93	0.0	0.0008509548946445653	0.006327556459013128
94	0.0	0.0009359327220512805	0.007894554543703105
95	0.0	0.0010280801872762468	0.008300992179765166
96	0.0	0.0011435528837952713	0.010221807274406521
97	0.0	0.0012852027963771375	0.011224008400929205
98	0.0	0.0014917134397756419	0.012452229908017923
99	5.3522640145797834e-05	0.001936046573053021	0.014323889840725756
100	0.00209211388111874	0.005889600438179876	0.018287855161204236
