	1S	1M	1H
0	-0.0028132459493191986	-0.008702329152802446	-0.016105258878776896
1	-1.3227496799506079e-06	-0.0017127228276397999	-0.012945209908392733
2	0.0	-0.001294652275200656	-0.011645754770222462
3	0.0	-0.0010707949940434059	-0.010059541921826174
4	0.0	-0.0009323700776870947	-0.008824317582759122
5	0.0	-0.0008417405199893534	-0.008370675641705206
6	0.0	-0.0007683930524269788	-0.0076816453989699855
7	0.0	-0.0007018096565924114	-0.00669447242530139
8	0.0	-0.0006478218216418297	-0.006227718167760803
9	0.0	-0.0006002903175061013	-0.005661199150929381
10	0.0	-0.0005538626819088232	-0.005068590434899156
11	0.0	-0.0005138957363541418	-0.003844102936523244
12	0.0	-0.0004820679731511124	-0.0037492396921586305
13	0.0	-0.000444486958660234	-0.003234194870590029
14	0.0	-0.000416732732652425	-0.0027696937513048314
15	0.0	-0.0003944906239041535	-0.00264610310883836
16	0.0	-0.0003710856922398964	-0.002424148860412619
17	0.0	-0.00035169260804259194	-0.002307983406083488
18	0.0	-0.00032979317923781165	-0.002272803926744791
19	0.0	-0.0003081508247341491	-0.002210828202792654
20	0.0	-0.0002888660349047889	-0.0021167385243263228
21	0.0	-0.0002721102983980905	-0.001922911578905976
22	0.0	-0.0002538698240703496	-0.001783655293585513
23	0.0	-0.00023872070460918214	-0.0017034609018610912
24	0.0	-0.00022194508994380688	-0.0016587787556709135
25	0.0	-0.0002066465895941283	-0.0015319587748008623
26	0.0	-0.00019214137163998225	-0.0014393708542748194
27	0.0	-0.00017905023381048816	-0.0013111636843060033
28	0.0	-0.0001666896170041232	-0.0011625379825065884
29	0.0	-0.00015335385798803005	-0.0010555763563775112
30	0.0	-0.00014249023252113082	-0.0009254086823832551
31	0.0	-0.00012885727927306362	-0.0008246928900149353
32	0.0	-0.00011597693377482618	-0.0007887544035678042
33	0.0	-0.00010555151838535051	-0.0007545047652141279
34	0.0	-9.481925275139464e-05	-0.0007041576555282746
35	0.0	-8.392621898578045e-05	-0.0006862325510513079
36	0.0	-7.515995570822831e-05	-0.0006159204082481696
37	0.0	-6.640702604453152e-05	-0.0005625250876101884
38	0.0	-5.89316353448921e-05	-0.0005407302562877359
39	0.0	-4.9156333435822486e-05	-0.0004503988516706659
40	0.0	-4.0286618587570544e-05	-0.00042199741283059926
41	0.0	-3.1984774813157424e-05	-0.0002658977171644983
42	0.0	-2.356711973905633e-05	-0.0001558801157061817
43	0.0	-1.5704597025956166e-05	-2.8410137475812656e-05
44	0.0	-8.272216046170118e-06	2.7827595109819604e-05
45	0.0	-1.3836082610185763e-06	8.137809093213824e-05
46	0.0	0.0	0.00011685734019220935
47	0.0	0.0	0.00015177090996993265
48	0.0	0.0	0.0001640712296117107
49	0.0	0.0	0.00023512900820996433
50	0.0	0.0	0.0002734647155436809
51	0.0	0.0	0.0003328640175083275
52	0.0	0.0	0.00039623497708955594
53	0.0	5.522414295338061e-06	0.00043937582043604114
54	0.0	1.174396990522476e-05	0.0004816945545665963
55	0.0	1.8704648990886018e-05	0.0005137239920692929
56	0.0	2.594586964383084e-05	0.0005508175021745924
57	0.0	3.248136677996613e-05	0.000600171496945947
58	0.0	3.963739883634964e-05	0.0006484961530405853
59	0.0	4.7564780226048016e-05	0.0007674140799754637
60	0.0	5.702883672009661e-05	0.0008429059596229307
61	0.0	6.49419150615715e-05	0.000946726484621916
62	0.0	7.422989723374406e-05	0.0010134906176324822
63	0.0	8.353571497653927e-05	0.0010409417764662998
64	0.0	9.182147593131519e-05	0.0010675535750705833
65	0.0	0.0001011623002298512	0.0011124440541747768
66	0.0	0.00011191566856728845	0.0012169341414072663
67	0.0	0.0001223512034591834	0.0013038083571122795
68	0.0	0.00013253870100307988	0.0013293336467588368
69	0.0	0.0001437166383397325	0.0013619343602742505
70	0.0	0.00015430798341908855	0.001382873493998593
71	0.0	0.00016652055187784675	0.001443880030798934
72	0.0	0.00017922721057093583	0.0014662686289322745
73	0.0	0.00019334310459436345	0.0014774692890604602
74	0.0	0.0002055228559884581	0.0015446719088511162
75	0.0	0.0002201462978710378	0.001615819489159065
76	0.0	0.0002344588872888842	0.001678174294220165
77	0.0	0.0002463671517078292	0.0016991689955293497
78	0.0	0.00026213457537858974	0.001751104615564655
79	0.0	0.000275092714230092	0.0018264850469219553
80	0.0	0.00029199985029308993	0.001907616728968264
81	0.0	0.00030990099258678257	0.002013611017495724
82	0.0	0.0003305645610347026	0.002141982777438458
83	0.0	0.0003498633690143338	0.0022943112068744614
84	0.0	0.0003710474228324136	0.0024597817144378547
85	0.0	0.00039690735672752713	0.0028077994831659505
86	0.0	0.00042191531943295527	0.002822734272841791
87	0.0	0.0004461835051506855	0.0028422959187908116
88	0.0	0.0004694856162769323	0.0031055192521765493
89	0.0	0.0005035244492380662	0.0032164484675787164
90	0.0	0.0005395041375161562	0.0037219491283039105
91	0.0	0.000583066942343837	0.004215409823786416
92	0.0	0.000627096388184203	0.0042846674061515445
93	0.0	0.0006794088926054544	0.005047168451141316
94	0.0	0.0007414298381984663	0.005671887862417438
95	0.0	0.0008118800457011847	0.006282132494481246
96	0.0	0.0009156720295221633	0.007194873624577615
97	0.0	0.0010358535062182375	0.007732961240572039
98	0.0	0.0012432151389712505	0.00842193138643266
99	2.6481696253943825e-06	0.0016339082288977975	0.01111435817386736
100	0.0020426060684370917	0.004455807255726363	0.01288865836791131
