	1S	1M	1H
0	-0.0019531058488987396	-0.008076637489369487	-0.022972083366488816
1	-0.00011123419608041196	-0.0022807467623434776	-0.0138820105985578
2	0.0	-0.0017218660450132673	-0.011751592822600758
3	0.0	-0.0014385385714913413	-0.010223881800945541
4	0.0	-0.001275644049907325	-0.00915580550308992
5	0.0	-0.0011503630074256477	-0.008043893512647476
6	0.0	-0.0010638898540867373	-0.007172461289252119
7	0.0	-0.000985360673272031	-0.006496302815094272
8	0.0	-0.0009154034336834327	-0.005976815645554136
9	0.0	-0.00086333968849426	-0.0055262453381502595
10	0.0	-0.0008154054667341981	-0.005272284040337749
11	0.0	-0.0007676069536492159	-0.00511467215446973
12	0.0	-0.0007271390480602591	-0.004685937580284967
13	0.0	-0.0006853118444006023	-0.004406509373367869
14	0.0	-0.0006497224178916161	-0.004224715175714941
15	0.0	-0.0006187274104357821	-0.004154363674355687
16	0.0	-0.000586982123001274	-0.0037408448954022117
17	0.0	-0.0005600005054301827	-0.0035925484890836756
18	0.0	-0.0005334158169041903	-0.0035570533206601288
19	0.0	-0.0005091865476633495	-0.0033460160689150753
20	0.0	-0.0004846013095496371	-0.003129189876073668
21	0.0	-0.000457443258715775	-0.0027460547937968424
22	0.0	-0.00043283859181306286	-0.0025539422697062994
23	0.0	-0.0004084642665669302	-0.0024772333308302683
24	0.0	-0.00038899327387380115	-0.0022842900050767012
25	0.0	-0.0003668056455204405	-0.002144315409362385
26	0.0	-0.00034535052340514124	-0.002032939953393151
27	0.0	-0.000323724561027101	-0.0018017740388469737
28	0.0	-0.0003060592452429755	-0.001712137676928109
29	0.0	-0.00028323622614689686	-0.0016975761825651291
30	0.0	-0.00026778844976373947	-0.00168533582041126
31	0.0	-0.00025008990255206206	-0.0015985386260202114
32	0.0	-0.00023336809914662469	-0.0015133776232088762
33	0.0	-0.00021646079750729848	-0.0012712572784493003
34	0.0	-0.00020178352526006177	-0.0011357974092196074
35	0.0	-0.0001868550972675576	-0.0010136454143889592
36	0.0	-0.0001711215920453402	-0.0008860015454478055
37	0.0	-0.00015339205610662482	-0.000818325265158062
38	0.0	-0.00013691737886627035	-0.0007733113841362549
39	0.0	-0.0001229900755516766	-0.0007029657688997588
40	0.0	-0.00010992972700354375	-0.000545921267795091
41	0.0	-9.707210679376965e-05	-0.00041836126469096306
42	0.0	-8.162421264344298e-05	-9.106445966906794e-05
43	0.0	-6.572130532769061e-05	-3.489779428268993e-05
44	0.0	-5.117342043591938e-05	-2.2426523689436087e-05
45	0.0	-3.79854878402419e-05	-1.96257984868664e-05
46	0.0	-2.6625897847765137e-05	8.645258648863547e-05
47	0.0	-1.376551151092809e-05	0.00014962976957645996
48	0.0	-6.559127111893747e-07	0.00019152915694097493
49	0.0	0.0	0.00022019182292048572
50	0.0	0.0	0.00024535892955745986
51	0.0	0.0	0.000302116335810865
52	0.0	2.5382034064769257e-06	0.0004506251454816646
53	0.0	1.592762853865449e-05	0.0005183058405685873
54	0.0	2.9241316481165737e-05	0.0005942360127653857
55	0.0	4.3715939484756474e-05	0.0006402698372318554
56	0.0	5.853568790645807e-05	0.0007041203094874335
57	0.0	7.183845829896727e-05	0.0008932471313311674
58	0.0	8.740946338440912e-05	0.0009173975843464665
59	0.0	0.00010403281778489146	0.0010781969797001457
60	0.0	0.00011743994741868491	0.0011617007015470638
61	0.0	0.00013199020472601575	0.0011786059192739474
62	0.0	0.00014788327329808834	0.0012773260429604831
63	0.0	0.00016891800768280784	0.0013800563979029642
64	0.0	0.00018408001984953514	0.0014451630034431418
65	0.0	0.0002009134608284224	0.001574735316156095
66	0.0	0.00021696963653321987	0.0018060800626065363
67	0.0	0.00023244467872316933	0.0019473892563798834
68	0.0	0.00024887101426265275	0.0020253882082912258
69	0.0	0.0002681156931592009	0.002143137177316878
70	0.0	0.0002883096560316378	0.002349898587390897
71	0.0	0.000310330702546042	0.00241957730663231
72	0.0	0.00033239402092486434	0.0025437546110260176
73	0.0	0.0003535275693467631	0.0027888466572659996
74	0.0	0.00037422368680577027	0.0029101147064492625
75	0.0	0.0003956937751957712	0.003101705618885675
76	0.0	0.0004165200276243207	0.0032187712326931183
77	0.0	0.0004385382756562706	0.0033631444571455057
78	0.0	0.00045851324664632827	0.0034982262913092785
79	0.0	0.0004853530314977841	0.003565076809032135
80	0.0	0.0005187353921723315	0.0036573833733171577
81	0.0	0.0005475547799583192	0.003846786509513831
82	0.0	0.0005724911800743814	0.003869554132038302
83	0.0	0.0006030642300542289	0.004533587829380919
84	0.0	0.0006380688465047069	0.004803694953110798
85	0.0	0.0006677125773738578	0.00502779582478694
86	0.0	0.0006989041821244157	0.005518816051358338
87	0.0	0.0007439617414008165	0.006027421881085303
88	0.0	0.0007825961771245904	0.006634175924698972
89	0.0	0.0008242105010547362	0.006750373494890424
90	0.0	0.0008753759178280252	0.007276754953914028
91	0.0	0.0009282007013288358	0.008055365296070307
92	0.0	0.000986230907825068	0.00861418033816972
93	0.0	0.0010540873768331602	0.009529454493144969
94	0.0	0.0011297903876511038	0.01085611329663634
95	0.0	0.001221430347491115	0.010959009856467673
96	0.0	0.001335719031355138	0.013309746924853868
97	0.0	0.001524903306973315	0.014614637965966406
98	0.0	0.0018230394180428363	0.015567593365374235
99	0.00010990118370335375	0.0022870324313334334	0.016203982500527153
100	0.0019975569079997424	0.0051433622182011085	0.02520056994113573
