	1S	1M	1H
0	-0.003467597322640681	-0.010156649363848969	-0.02570513773276617
1	-0.00013457433504649566	-0.0021370803293983575	-0.013472992316512035
2	-4.149264431798638e-06	-0.0015868429945803508	-0.011228224712980888
3	0.0	-0.0013477921478117138	-0.01074219598649566
4	0.0	-0.0011719218072811489	-0.008921038775400158
5	0.0	-0.001070011183890246	-0.008094492811418812
6	0.0	-0.0009708085240742936	-0.007797726667053704
7	0.0	-0.0009037792416793809	-0.007194577666901387
8	0.0	-0.0008427252037042799	-0.006413122873858534
9	0.0	-0.0007926960824050811	-0.006248936880402803
10	0.0	-0.0007428420600363416	-0.004921662121703431
11	0.0	-0.0006939046134548077	-0.004225160503274802
12	0.0	-0.0006512094431102433	-0.003806559022724336
13	0.0	-0.000611026492266219	-0.003771030097287651
14	0.0	-0.0005734084835730103	-0.0035225665735122017
15	0.0	-0.0005458246397815281	-0.003377992755758974
16	0.0	-0.0005175083328698494	-0.003272560050824218
17	0.0	-0.0004914371895092616	-0.003216338914929472
18	0.0	-0.00046548506018564864	-0.0031585257871513564
19	0.0	-0.0004427893458695509	-0.0028446346356859097
20	0.0	-0.0004204914286286332	-0.002668495402210702
21	0.0	-0.00039661364410572544	-0.002613116536531824
22	0.0	-0.0003777783064067108	-0.0025581896059671603
23	0.0	-0.0003584183469716606	-0.002329737331368463
24	0.0	-0.00034031705629756543	-0.0019102824913721551
25	0.0	-0.00032523028638042906	-0.0018483432385283105
26	0.0	-0.0003087949726626804	-0.0017410407737607088
27	0.0	-0.0002907283282703066	-0.0016038040133906427
28	0.0	-0.0002720784863660162	-0.0015350475665982975
29	0.0	-0.0002553100854928314	-0.0014906434887923948
30	0.0	-0.00023894412614199336	-0.0014718084627826757
31	0.0	-0.0002246708459149305	-0.001461395108289313
32	0.0	-0.00020869133289974856	-0.0014287437838844943
33	0.0	-0.0001933534235258072	-0.0013387792430426982
34	0.0	-0.00017795209128624638	-0.0011972336271703463
35	0.0	-0.00016261400053514956	-0.0010586816687052918
36	0.0	-0.0001495379387332907	-0.0010216615879376789
37	0.0	-0.00013610989930766927	-0.0009736219520967515
38	0.0	-0.00012315083802077797	-0.0008871282990049268
39	0.0	-0.00010840121587950335	-0.0008579065037877842
40	0.0	-9.532995937853165e-05	-0.0007229512208592142
41	0.0	-8.181635400303366e-05	-0.0006572989899035397
42	0.0	-7.051399610236595e-05	-0.0006218767194299945
43	0.0	-5.82557644404591e-05	-0.0005255475017659849
44	0.0	-4.413226383187304e-05	-0.00043804852677797814
45	0.0	-3.335241847384205e-05	-0.00013289851449209089
46	0.0	-2.2292666842764763e-05	4.121973400498563e-05
47	0.0	-1.1197859769905838e-05	0.0001335409746640145
48	0.0	-1.4875645224732271e-06	0.00018889114673258133
49	0.0	0.0	0.000324269158478334
50	0.0	0.0	0.00034803197816646314
51	0.0	0.0	0.00037852271549907444
52	0.0	6.994525272778773e-06	0.00039577799582752427
53	0.0	1.9518941809637533e-05	0.00046707376403178503
54	0.0	3.2768164280807615e-05	0.0007553913986151218
55	0.0	4.513378612915903e-05	0.0007700349912650674
56	0.0	5.566866198277527e-05	0.0008023949185917269
57	0.0	6.787388882253827e-05	0.0008171574189872089
58	0.0	7.910239936986582e-05	0.0008667535949414651
59	0.0	9.229694222482316e-05	0.0008784591123559449
60	0.0	0.00010449481005694316	0.0009366599667333111
61	0.0	0.0001173941408501622	0.0012101549922789079
62	0.0	0.0001328798451559576	0.0013438112443672928
63	0.0	0.00014851090748186033	0.001553602836644091
64	0.0	0.0001614395311367645	0.0017288388375219996
65	0.0	0.00017501359411536987	0.0017402212185034238
66	0.0	0.00018865172638328433	0.0019068666781228583
67	0.0	0.0002048792484393759	0.0020127523420679404
68	0.0	0.00021695259791742138	0.002069391032025179
69	0.0	0.00023225096436671133	0.002107446095959755
70	0.0	0.0002486653198686683	0.0021422176293002465
71	0.0	0.0002673743683418482	0.002346552921434746
72	0.0	0.00028261506795816514	0.002549992787142825
73	0.0	0.00029907553312668477	0.0026309176404548064
74	0.0	0.00031552820418997204	0.0026536519237011277
75	0.0	0.00033372731522018917	0.0027399642937556146
76	0.0	0.0003527293601760384	0.002790928790445806
77	0.0	0.00037225948481266923	0.0029448551807933956
78	0.0	0.0003920182735905575	0.0030062606121599206
79	0.0	0.0004142974810065052	0.003047566782867994
80	0.0	0.00043446064134649036	0.0031242423072838305
81	0.0	0.0004597159826811193	0.0033841163461701095
82	0.0	0.0004828602602157291	0.003622163407241192
83	0.0	0.0005084255368238465	0.003688156782740334
84	0.0	0.0005368507983608418	0.0037497138876478875
85	0.0	0.0005629244216949325	0.004026045014041677
86	0.0	0.0005942165993348516	0.004189172979533491
87	0.0	0.0006268032680545964	0.00435257174124794
88	0.0	0.0006589856644936721	0.004602550526205952
89	0.0	0.0006990520415789248	0.004690855564535024
90	0.0	0.0007422153985277238	0.0053387790064398435
91	0.0	0.0008025131839064745	0.005905260647402867
92	0.0	0.00085349226139277	0.006571988043313608
93	0.0	0.000921924779023318	0.006902625522201061
94	0.0	0.0010025209021562414	0.007371246879412825
95	0.0	0.0011019442902073667	0.007907318958296794
96	0.0	0.0012275404687133306	0.008111187707867182
97	0.0	0.0014050083821181916	0.009302369109218545
98	4.332937115982315e-06	0.0016719795200458227	0.010013686321027618
99	0.00012944463105511213	0.0022418594237800637	0.014753556956140005
100	0.0025519054836291577	0.01028656789796556	0.03172438062639782
