	1S	1M	1H
0	-0.0034679458092954363	-0.007284873548591864	-0.021864910654348924
1	-0.0002527487213307067	-0.0017285883224144117	-0.011788469510718923
2	-0.00012532906713452974	-0.0013612856105788152	-0.009444192719481386
3	-4.832167546242827e-05	-0.0011889003575023894	-0.007828168716488313
4	-3.0994297049335984e-05	-0.0010302818954060645	-0.00672900134505873
5	0.0	-0.0009257013336896602	-0.005473823989455129
6	0.0	-0.0008375327819045753	-0.004827672004662815
7	0.0	-0.0007891289892331388	-0.004748800108852809
8	0.0	-0.0007336635653785661	-0.0044083354103686655
9	0.0	-0.0006748794008094284	-0.00375415890258225
10	0.0	-0.0006400942239940255	-0.00349801565052803
11	0.0	-0.0005946574684364603	-0.003388586537737601
12	0.0	-0.0005576774452717181	-0.0032219729508363095
13	0.0	-0.0005262159583541803	-0.0031039654965154865
14	0.0	-0.0004955941695637866	-0.003013738229171052
15	0.0	-0.0004720892989466763	-0.0028365768977878293
16	0.0	-0.000446301626881187	-0.002707772363169676
17	0.0	-0.0004248917416075004	-0.0026080001541661287
18	0.0	-0.0004038315634094736	-0.0024353674113230662
19	0.0	-0.0003828102874333073	-0.002405033474334419
20	0.0	-0.000363690537327077	-0.0023619408790569226
21	0.0	-0.0003416429586363567	-0.0022944994223233982
22	0.0	-0.000319818241205434	-0.0022227280092307258
23	0.0	-0.0003052014379538148	-0.0021572191541693385
24	0.0	-0.0002880117975181662	-0.002105682341999988
25	0.0	-0.00027687472341011987	-0.001989923541198396
26	0.0	-0.0002561657526839256	-0.001803925010788012
27	0.0	-0.0002507026752516417	-0.0016614181190499878
28	0.0	-0.0002246037348392349	-0.0016132991873242372
29	0.0	-0.000220377074973398	-0.0013319099720336802
30	0.0	-0.0002013007133084166	-0.0010463408138554396
31	0.0	-0.00019096117122840983	-0.0010004775594115133
32	0.0	-0.00017673139210776063	-0.0009646424536741405
33	0.0	-0.00016065805539455802	-0.0009286967182885731
34	0.0	-0.0001585890909002452	-0.0008887648022226701
35	0.0	-0.0001440784940391071	-0.0008382260008018285
36	0.0	-0.00012829147823867348	-0.0007863202914282087
37	0.0	-0.00012657643041890987	-0.0007060737785255612
38	0.0	-0.00011235587149566406	-0.0006678946116531791
39	0.0	-9.622536752394328e-05	-0.0006522536887395493
40	0.0	-9.506306078645998e-05	-0.0005447573520713346
41	0.0	-8.031266755945788e-05	-0.00048327913063815457
42	0.0	-6.416578432994368e-05	-0.0004150560015193627
43	0.0	-6.318328777486392e-05	-0.00035726381134077096
44	0.0	-4.8065553726885926e-05	-0.0002850846231248205
45	0.0	-3.2110872453133815e-05	-0.00022270594951158683
46	0.0	-3.188773483096874e-05	-0.00021982074937864303
47	0.0	-3.1345791783713436e-05	-0.0001727449356433665
48	0.0	-1.5795752233569438e-05	-6.35628444390557e-05
49	0.0	0.0	-3.7151053804168664e-05
50	0.0	0.0	1.5854895991762596e-05
51	0.0	0.0	4.291326106479209e-05
52	0.0	1.5916461371885403e-05	0.00010946487816260848
53	0.0	3.13589534448222e-05	0.00012759531531110425
54	0.0	3.183829250466453e-05	0.00016697183309671203
55	0.0	3.222838322308741e-05	0.00024378577300008305
56	0.0	6.166170923612491e-05	0.00032159109890715306
57	0.0	6.362132586823499e-05	0.0003718200524645021
58	0.0	6.420059350928042e-05	0.0004252511786675539
59	0.0	8.017831657625152e-05	0.00047198076716646663
60	0.0	9.486765961463917e-05	0.0005118415687985324
61	0.0	9.618893051049238e-05	0.0005730779656084306
62	0.0	0.00011210913154910961	0.0006125249433649941
63	0.0	0.0001269131775835364	0.0006638498818126524
64	0.0	0.00012869284159992668	0.0007326413634790715
65	0.0	0.00014490280734293928	0.00077031997610576
66	0.0	0.0001584190539025254	0.0008321673287462828
67	0.0	0.00016135278172169087	0.000844621658267899
68	0.0	0.00018843913656623634	0.0009371117875971271
69	0.0	0.00019231712368801278	0.0010633984465266506
70	0.0	0.00020859641979464882	0.0011797269154480753
71	0.0	0.00022250278882069094	0.0012172678816962956
72	0.0	0.000233681273726889	0.0013286271489680412
73	0.0	0.0002521435432025143	0.0016257856560572233
74	0.0	0.00025744665080566163	0.0017015357917781145
75	0.0	0.00028293436050574883	0.0017745423782221104
76	0.0	0.00028988681645894407	0.00194620009236993
77	0.0	0.0003151822012331129	0.0020762996864363806
78	0.0	0.00032362191328372253	0.0021420254618415985
79	0.0	0.00034599171585534503	0.002178054897934873
80	0.0	0.0003572959884637684	0.0022922578786905394
81	0.0	0.00038226238818468656	0.0024980550146944088
82	0.0	0.00040577605993158584	0.002651410199349433
83	0.0	0.00042345895352326353	0.0026698674058143477
84	0.0	0.00044793356227097037	0.0028251783453311675
85	0.0	0.0004767603257176289	0.0031216798183555353
86	0.0	0.0005060351021521914	0.0032453725760470146
87	0.0	0.0005301927971176278	0.0034047256197777356
88	0.0	0.000563250230853898	0.0036693243293467333
89	0.0	0.0005992321453893766	0.003780946516120493
90	0.0	0.0006393187448299642	0.004230022842831918
91	0.0	0.0006808679591933362	0.004457144528073551
92	0.0	0.000724677109554106	0.005021549499163208
93	0.0	0.0007759878340790995	0.005610635953609377
94	0.0	0.0008356248798318556	0.005749877885344298
95	0.0	0.000917521195302184	0.005940811638079193
96	1.609372988298219e-05	0.0010070268812634176	0.006217641585174087
97	4.770918769268608e-05	0.0011128746858962363	0.006693214770124155
98	0.00012475882571176875	0.00129143908726487	0.007310001538847308
99	0.00025106742892672823	0.0016368614423593274	0.008285798055194001
100	0.002509124087591408	0.00854418350989139	0.010138099106417275
