	1S	1M	1H
0	-0.00274553416278589	-0.006974376378754754	-0.020008125126955267
1	-6.853098358065579e-05	-0.0019231261955968471	-0.012876345223101337
2	0.0	-0.001506201375006766	-0.009150880378709082
3	0.0	-0.0012465432943607091	-0.00858428860513952
4	0.0	-0.0010829439893012749	-0.008491022565082123
5	0.0	-0.000963076389751244	-0.007901501372237352
6	0.0	-0.0008707079958747199	-0.007303567606743394
7	0.0	-0.0007983695206338203	-0.00652544781401645
8	0.0	-0.0007290684604324094	-0.006310244511378462
9	0.0	-0.00067546830947944	-0.005450966401742751
10	0.0	-0.0006240448443587288	-0.004928520345816256
11	0.0	-0.0005860068608350488	-0.0049157554802569375
12	0.0	-0.0005531803077833919	-0.004781408532665372
13	0.0	-0.0005141869317496228	-0.004578701290194628
14	0.0	-0.00048646448422669177	-0.004169738092057174
15	0.0	-0.00046094514795743665	-0.00408462889267665
16	0.0	-0.0004306584932674129	-0.004012855984644501
17	0.0	-0.0004104287220428782	-0.0037734499426707903
18	0.0	-0.0003856377584631043	-0.003646841519622255
19	0.0	-0.0003614256906638258	-0.003456728895177884
20	0.0	-0.0003420487353600121	-0.0033585984684733504
21	0.0	-0.0003114966139788355	-0.0031605585311711383
22	0.0	-0.0003026000237353642	-0.003016773327122095
23	0.0	-0.0002777443271340074	-0.002919721875400376
24	0.0	-0.00027269801967015454	-0.002798391003152734
25	0.0	-0.00025286084268275055	-0.002616043882028879
26	0.0	-0.00023889904427069954	-0.0024654401418616476
27	0.0	-0.00022291222962824927	-0.002394826135231559
28	0.0	-0.0002070010517994225	-0.0022705132152973915
29	0.0	-0.00020399705176708528	-0.00215352961744831
30	0.0	-0.00017741199007627057	-0.0020502585304144174
31	0.0	-0.0001711802331291279	-0.0019240687591432124
32	0.0	-0.00015675848997638296	-0.0018118954045751056
33	0.0	-0.00014038900753642224	-0.001757538172552815
34	0.0	-0.00013729794898372115	-0.0017405964529818995
35	0.0	-0.0001358730275482334	-0.0017023290834283782
36	0.0	-0.00011941708129290519	-0.0016445690804898394
37	0.0	-0.0001036332791547756	-0.0015205007911751468
38	0.0	-0.00010254643303441612	-0.0012824789943815128
39	0.0	-8.633994940710709e-05	-0.0011806492168024122
40	0.0	-6.998733231347031e-05	-0.0010992147671385233
41	0.0	-6.8691792601131e-05	-0.001044929142557135
42	0.0	-6.820607813639245e-05	-0.0009176590619023139
43	0.0	-5.172280931909911e-05	-0.0008802118018492355
44	0.0	-3.489354058496374e-05	-0.0007912292972790169
45	0.0	-3.434343096453962e-05	-0.0007307949063816651
46	0.0	-3.4070366288829756e-05	-0.000663438444121953
47	0.0	-1.720737251578952e-05	-0.0005844178586209895
48	0.0	0.0	-0.000537811188532511
49	0.0	0.0	-0.00048221399185024224
50	0.0	0.0	-0.0004295635664480213
51	0.0	0.0	-0.00037936140685664645
52	0.0	0.0	-0.00037587695116439776
53	0.0	0.0	-0.0003277861013697734
54	0.0	1.7099354566791902e-05	-0.00029727866029681093
55	0.0	3.392480280450809e-05	-0.00021216818761637363
56	0.0	3.4183499763189573e-05	-0.0001954774396902168
57	0.0	3.451965894551989e-05	-0.0001481702503932617
58	0.0	5.083152027625548e-05	-3.38145681083879e-05
59	0.0	5.1818036153279397e-05	5.212730587327523e-05
60	0.0	6.819700768647685e-05	0.0002536708300855397
61	0.0	6.895781319117055e-05	0.0003518148736189521
62	0.0	8.517469764761196e-05	0.00044688133529674273
63	0.0	0.0001019109665865181	0.0005055320512467613
64	0.0	0.00010290267923974028	0.0005950739995555131
65	0.0	0.0001054143287125498	0.0006575728492046239
66	0.0	0.00012252113489563676	0.0007319621363598072
67	0.0	0.00013673811233050337	0.0009179204022820598
68	0.0	0.00013948870680266626	0.000993776172403127
69	0.0	0.00015805549533413484	0.0011078841523414382
70	0.0	0.00017147246990518723	0.001219088879674456
71	0.0	0.00018719606230673146	0.0013201060219254087
72	0.0	0.0002044842022572624	0.001361222764385692
73	0.0	0.00020757061975986256	0.0014039446620051255
74	0.0	0.00022450534571172298	0.0014272682010034688
75	0.0	0.00023990677908014568	0.001514624022948663
76	0.0	0.00025563731407504344	0.0017601689928858294
77	0.0	0.0002731260060626295	0.0018416962401456782
78	0.0	0.00028730511247990084	0.0020561581390236526
79	0.0	0.000307186317038779	0.00228651543935365
80	0.0	0.0003169438287560668	0.0023314193273135326
81	0.0	0.000342090742309975	0.002381334032504157
82	0.0	0.00036284433613799274	0.002461300454927642
83	0.0	0.0003814543815237048	0.002531415030007954
84	0.0	0.0004097442667073726	0.002706415213996767
85	0.0	0.0004287470291134074	0.00291965347095594
86	0.0	0.00045898511839460854	0.003005684065345471
87	0.0	0.0004953603565523101	0.0032664441217613418
88	0.0	0.0005280205574142195	0.00340863525336725
89	0.0	0.0005627312515424298	0.004158407560955896
90	0.0	0.0006125063590231238	0.004650292012654726
91	0.0	0.0006607089331029003	0.004990835028469993
92	0.0	0.0007100277045944293	0.005149824351750941
93	0.0	0.0007700832741255693	0.0058730355002122835
94	0.0	0.000847098883268265	0.006843609942886705
95	0.0	0.0009461918200311498	0.008075465553561265
96	0.0	0.00104701222838278	0.010612763521649596
97	0.0	0.0012098656702211308	0.01270534171530381
98	0.0	0.0014276510195312534	0.013851646280314508
99	6.90536201359837e-05	0.0019536325685514363	0.015284412330397141
100	0.002857939495329642	0.011638996820911407	0.020181126040779374
