	1S	1M	1H
0	-0.002601885723118036	-0.012627564168642635	-0.019526657465623654
1	-5.1576327317444106e-05	-0.002237362967324066	-0.011702695043027369
2	0.0	-0.0017296247677809394	-0.01030013736139662
3	0.0	-0.0014814110697627435	-0.008971775238723128
4	0.0	-0.0012874663862643086	-0.008609771801425845
5	0.0	-0.001131339979530127	-0.008374923769261484
6	0.0	-0.0010424457544319	-0.008147170316512657
7	0.0	-0.0009611551314662536	-0.007738281872386727
8	0.0	-0.0008912598865361508	-0.007569119915592592
9	0.0	-0.0008031556541294749	-0.007121446563773108
10	0.0	-0.0007491438549303897	-0.006385569734413621
11	0.0	-0.0006982343230720844	-0.005863944617763059
12	0.0	-0.000668220056175457	-0.005736247800829016
13	0.0	-0.0006237567102649833	-0.005562687650681845
14	0.0	-0.0005756678808296444	-0.005355406514156294
15	0.0	-0.0005362248186935259	-0.005197345541684195
16	0.0	-0.0005037185070092987	-0.004832040439678638
17	0.0	-0.00047202318705194426	-0.004613736495679453
18	0.0	-0.00044077369490442826	-0.004373785081477133
19	0.0	-0.0004160813355907922	-0.004227737106916442
20	0.0	-0.00039199084656416083	-0.003065293595753294
21	0.0	-0.0003670844797010775	-0.0025862295965872594
22	0.0	-0.0003423751065685576	-0.0023602763968313422
23	0.0	-0.0003190583105425548	-0.001959662382288011
24	0.0	-0.00029351631891376233	-0.0017903486777248116
25	0.0	-0.00027856620006327937	-0.0014990817007448642
26	0.0	-0.00026171049865314266	-0.001431745694726576
27	0.0	-0.0002379573377926913	-0.001412997135100893
28	0.0	-0.0002245580878481671	-0.0013749358731133029
29	0.0	-0.000210450775228459	-0.0013362217991219083
30	0.0	-0.00019759555406001497	-0.0012435378066966594
31	0.0	-0.0001697841874554318	-0.0010739332715977278
32	0.0	-0.0001597631336729366	-0.000965364658744714
33	0.0	-0.00015532717860703538	-0.0009151136775317381
34	0.0	-0.00013033384806618865	-0.000771911102691156
35	0.0	-0.0001125660563045528	-0.0006544938557644266
36	0.0	-0.00010565240359228234	-0.0006221242545547944
37	0.0	-8.477155339131737e-05	-0.0006209536099082069
38	0.0	-5.709871168961156e-05	-0.00042242317993006705
39	0.0	-5.563295395397905e-05	-0.00035577250580533335
40	0.0	-5.3054902726157305e-05	-0.0002378545746638762
41	0.0	-5.206494803290274e-05	-0.0001736410705008363
42	0.0	-2.66438738212349e-05	-0.00011175291866995841
43	0.0	0.0	-0.0001043049361582149
44	0.0	0.0	4.052761259612413e-05
45	0.0	0.0	0.00010529766588019963
46	0.0	0.0	0.0001115052011303153
47	0.0	0.0	0.00014178894470935315
48	0.0	0.0	0.00020944547045350422
49	0.0	0.0	0.0003759304085823431
50	0.0	0.0	0.0005407375017981719
51	0.0	0.0	0.00056276412659668
52	0.0	0.0	0.0006363993660202816
53	0.0	0.0	0.000707970054429761
54	0.0	0.0	0.0007476692387972021
55	0.0	0.0	0.0008490022534926372
56	0.0	0.0	0.0008750716198307454
57	0.0	2.6470705887540188e-05	0.0009581625079376988
58	0.0	5.15326320284526e-05	0.0010045683614037636
59	0.0	5.297794330471505e-05	0.0010999731959650918
60	0.0	5.6471013601600005e-05	0.001206906085651349
61	0.0	7.895181495759517e-05	0.0012882804914509042
62	0.0	0.0001037108809317155	0.0014335398101592701
63	0.0	0.00010635950176109967	0.0015103055485327461
64	0.0	0.00011300150101525296	0.0015615445819800032
65	0.0	0.0001320725149310032	0.0016656343866857434
66	0.0	0.00015610365282525684	0.0017839068595126761
67	0.0	0.00015994702581171972	0.0018090103335875306
68	0.0	0.00016987273146000346	0.0018134636541186299
69	0.0	0.00018928419108383827	0.0018690257902350615
70	0.0	0.00021034697172102042	0.0019097410883884833
71	0.0	0.00022454362916540126	0.0019787204408161967
72	0.0	0.00024061520497457243	0.0020584776059363818
73	0.0	0.0002640148314601043	0.0021335477075326036
74	0.0	0.00028298149301098086	0.002353838172281017
75	0.0	0.00031120111844351594	0.002497659749511938
76	0.0	0.0003189155183991321	0.002613122031829987
77	0.0	0.0003421167956479376	0.002957374418495893
78	0.0	0.0003672998215971113	0.0031908420955033085
79	0.0	0.0003885248744716698	0.0035542969675402707
80	0.0	0.0004163717455307748	0.0037013546822486803
81	0.0	0.0004292497233130146	0.003855646732613827
82	0.0	0.0004588401910664515	0.0041170269805124605
83	0.0	0.00048526814796181475	0.004175832544421966
84	0.0	0.0005257154697328484	0.004240886098295018
85	0.0	0.0005658767607029768	0.00446479780235852
86	0.0	0.000598553481011992	0.004987260963108013
87	0.0	0.0006406991323316812	0.0051875708147537634
88	0.0	0.000682327307182229	0.005230035599347955
89	0.0	0.000729631813726339	0.0053396346668015795
90	0.0	0.0007823312121900906	0.005698849585637071
91	0.0	0.0008338271723755893	0.006129638305208118
92	0.0	0.0008933658514632993	0.0065786904959105105
93	0.0	0.0009651927617969388	0.00720130026304268
94	0.0	0.0010476425968462299	0.007440864382025402
95	0.0	0.0011542709410191972	0.00782398139722973
96	0.0	0.0012948108659713322	0.010828055174349243
97	0.0	0.0014891185032685857	0.013178310891264814
98	0.0	0.0017289316311608176	0.017477011227604877
99	5.2877207519630456e-05	0.002365543362141646	0.019990951838883577
100	0.0032981190414838046	0.014936600042982917	0.023276097029163
