	1S	1M	1H
0	-0.006603325415677319	-0.012198867874851804	-0.02280694161942265
1	-0.00013434323625360233	-0.002526463585773633	-0.016007911948837956
2	0.0	-0.0020003415887217503	-0.012319951127800745
3	0.0	-0.0016957512172368118	-0.010838618179577628
4	0.0	-0.0015403551297985096	-0.010236826862296758
5	0.0	-0.0013717559053943505	-0.009172209939303205
6	0.0	-0.001255211368628606	-0.008988395652530625
7	0.0	-0.0011697160105902371	-0.008911038881430886
8	0.0	-0.0010973680417848053	-0.008319879582510289
9	0.0	-0.0010372826068135688	-0.006809413251613612
10	0.0	-0.0009650945154341062	-0.00647221768104268
11	0.0	-0.0009130749531496972	-0.0060437481402019376
12	0.0	-0.0008631766131126195	-0.0058721291174768896
13	0.0	-0.0008178971460814165	-0.005741845208903152
14	0.0	-0.0007738380865495386	-0.005488099149096802
15	0.0	-0.0007320719585376778	-0.005307772818863416
16	0.0	-0.0006891927956126719	-0.005145310509520749
17	0.0	-0.0006574692221821531	-0.004900845885304161
18	0.0	-0.0006222833893308776	-0.00454737883552994
19	0.0	-0.000587914139327238	-0.004437014425507764
20	0.0	-0.0005512983300479667	-0.004334551391214437
21	0.0	-0.0005212016808932617	-0.004190604910831331
22	0.0	-0.000499817355040133	-0.003964695962970366
23	0.0	-0.0004706872576552579	-0.003858775904443796
24	0.0	-0.0004518017507457239	-0.003727492157386663
25	0.0	-0.0004219112586941187	-0.003480070233527699
26	0.0	-0.00040736590298908967	-0.002849911034125732
27	0.0	-0.00038174565734262804	-0.002767961856009844
28	0.0	-0.00036428280512644127	-0.002378108566423926
29	0.0	-0.00033877663301005507	-0.002149437754198219
30	0.0	-0.0003189342364869008	-0.002050571352944419
31	0.0	-0.0002950411295074951	-0.0020487554437110846
32	0.0	-0.00027524047029060307	-0.0019559722721885775
33	0.0	-0.0002574481525926331	-0.001907294856922982
34	0.0	-0.00023411199135638938	-0.0017279050329046973
35	0.0	-0.00022669439961045534	-0.0016553750781606647
36	0.0	-0.00020476644456293158	-0.0015954161119818935
37	0.0	-0.0001839822310650674	-0.0015636441084735853
38	0.0	-0.0001669791569748558	-0.0013956161969361691
39	0.0	-0.00014055314296575473	-0.0013092025863711758
40	0.0	-0.0001361575507766055	-0.0012189586162118628
41	0.0	-0.00011378600169168699	-0.0010760989857871684
42	0.0	-9.198286546038492e-05	-0.0009953506961456315
43	0.0	-8.92611715261504e-05	-0.0007096427445901251
44	0.0	-4.777358264044017e-05	-0.0005740176630607055
45	0.0	-4.5616067897868986e-05	-0.0004548063767774496
46	0.0	-2.3438308291732212e-05	-0.00035047513912655126
47	0.0	0.0	-0.00023302024228057387
48	0.0	0.0	-0.00014206207563414178
49	0.0	0.0	-9.892756175805436e-05
50	0.0	0.0	4.3716079716538125e-05
51	0.0	0.0	0.0001367909317381444
52	0.0	0.0	0.00018017386744673144
53	0.0	0.0	0.00024081036067164624
54	0.0	0.0	0.00029217093082946783
55	0.0	2.307573180740932e-05	0.0003609928426886345
56	0.0	4.5627681836366565e-05	0.00037273617018310115
57	0.0	4.7224383522708126e-05	0.0004209858155664102
58	0.0	8.649786899935561e-05	0.0004532372228557291
59	0.0	9.192665660595845e-05	0.0005032719946959597
60	0.0	0.000113537276783493	0.0005859988146278196
61	0.0	0.00013583438241295817	0.0006562393454505912
62	0.0	0.00014036296028473226	0.0006804106709373994
63	0.0	0.00016133587041152977	0.0007329990989041233
64	0.0	0.00018231640319783083	0.0007744959188551092
65	0.0	0.00018839423302153828	0.0008441532563186914
66	0.0	0.00022590610041010707	0.0009625053802564487
67	0.0	0.00023271091795023849	0.0010745796856771017
68	0.0	0.0002560374827049384	0.001175216013586731
69	0.0	0.00027540698788881314	0.0013292013127393382
70	0.0	0.0002977635729970451	0.001399157052612043
71	0.0	0.0003194396872098459	0.001477885605214932
72	0.0	0.000339816211427646	0.0015512296927416179
73	0.0	0.0003638348189922702	0.0016334577084728807
74	0.0	0.0003812979886957768	0.002011197140610008
75	0.0	0.0004114661937749675	0.0020675872948600627
76	0.0	0.00043735308453441313	0.002077016798931499
77	0.0	0.0004647801560031306	0.0021703553411639674
78	0.0	0.000494461599849263	0.0022271990656210364
79	0.0	0.0005150466929644338	0.0023051975983298333
80	0.0	0.0005443756925278987	0.0025293210980104936
81	0.0	0.0005719277011359084	0.0028660654217108044
82	0.0	0.0006074501398952568	0.002929884137040486
83	0.0	0.0006380373271952088	0.0033646740417062598
84	0.0	0.0006788390836486614	0.003524614471109953
85	0.0	0.0007127448068827702	0.0037237225390304263
86	0.0	0.0007476999117785791	0.003855229782551671
87	0.0	0.0007936139231439897	0.004109455581457109
88	0.0	0.000835472381004019	0.004504455433094724
89	0.0	0.0008836929553087012	0.004683286693819339
90	0.0	0.0009426932096055168	0.004957775923852471
91	0.0	0.0010029618631070079	0.005900361972000333
92	0.0	0.0010700501146729475	0.006189867891731008
93	0.0	0.0011505784335632198	0.006812525264577134
94	0.0	0.00125313470754227	0.007401846291010258
95	0.0	0.0013643642385538141	0.0076750478126461075
96	0.0	0.0014999193833190462	0.007809657048458938
97	0.0	0.0017101562465337812	0.009828394731253128
98	0.0	0.0019672054434122727	0.012556789971699083
99	0.00013769224145727694	0.002576488644019583	0.014588264478307453
100	0.005356032710057024	0.01234456658857419	0.01532710280373828
