	1S	1M	1H
0	-0.007270382640016337	-0.023210745550531597	-0.016645089698539284
1	-6.91728774364131e-05	-0.0018492644408000625	-0.011567871234560248
2	0.0	-0.0014368988322452925	-0.010354070222370435
3	0.0	-0.0011693765027187353	-0.009854686275843324
4	0.0	-0.0010086099154431195	-0.008423336858980095
5	0.0	-0.0009025542358205519	-0.0075807520319154005
6	0.0	-0.0008325898465999604	-0.0062629877820778845
7	0.0	-0.000773799825037258	-0.005999862423491401
8	0.0	-0.0007151989568687344	-0.0058708976624881615
9	0.0	-0.000668841778140763	-0.005652701347044174
10	0.0	-0.0006265167322952569	-0.005348073293910505
11	0.0	-0.0005909429384996412	-0.004948697201799732
12	0.0	-0.0005508981908251221	-0.0046932086635075665
13	0.0	-0.0005206736922530864	-0.0044240860659235295
14	0.0	-0.0005004813722450718	-0.00402742210623356
15	0.0	-0.00046926766436071747	-0.003967401467447451
16	0.0	-0.00045098189239619387	-0.0038383266427537686
17	0.0	-0.0004215946402768389	-0.00369804694891745
18	0.0	-0.00040611480748774297	-0.003554804108825678
19	0.0	-0.00038718137504974994	-0.003129431427455216
20	0.0	-0.0003653156555091685	-0.003037024769096974
21	0.0	-0.0003438645250678851	-0.0029572432932337567
22	0.0	-0.0003228484457153957	-0.0029285915922797234
23	0.0	-0.0003056816625546644	-0.0028851531528900276
24	0.0	-0.0002957056308557649	-0.0028367145685568307
25	0.0	-0.0002765168112392469	-0.0026496696088013083
26	0.0	-0.00025914254923098845	-0.0025265040578262244
27	0.0	-0.0002382271399245783	-0.0024356997965789538
28	0.0	-0.00023026493645781796	-0.00234434790707569
29	0.0	-0.00021852459542412992	-0.0022841414579851307
30	0.0	-0.00020795689308650278	-0.00218398304409696
31	0.0	-0.00018700433710647116	-0.0020712312781424567
32	0.0	-0.00018265007022943535	-0.001989720853952259
33	0.0	-0.00017364020949358182	-0.001960320796542875
34	0.0	-0.00015545509732346475	-0.0018097288519102169
35	0.0	-0.00013926606939809185	-0.0017295261570641819
36	0.0	-0.00013627641947566715	-0.0016775144588052542
37	0.0	-0.00013008649043597887	-0.0015331428874085728
38	0.0	-0.0001133265700572661	-0.001425195677646418
39	0.0	-9.326139894352047e-05	-0.001294973740795148
40	0.0	-9.190247421315689e-05	-0.0012293264761784163
41	0.0	-8.883771837674193e-05	-0.0012074846615435886
42	0.0	-8.586764568280446e-05	-0.0011910221242029562
43	0.0	-6.537044085829892e-05	-0.001078660286100592
44	0.0	-4.643880420454495e-05	-0.0010266684544162487
45	0.0	-4.5445043613068224e-05	-0.00092359578040897
46	0.0	-4.358293574679095e-05	-0.0009093322189885943
47	0.0	-2.330628653236078e-05	-0.0008717914773405477
48	0.0	-2.1674430928868577e-05	-0.0008506376551566811
49	0.0	0.0	-0.0007073045412810254
50	0.0	0.0	-0.00031298137845753304
51	0.0	0.0	-0.0002651372958856701
52	0.0	0.0	-0.00025941722502743404
53	0.0	0.0	-0.00016358249989104932
54	0.0	0.0	-0.0001294514960986778
55	0.0	2.2520038765594397e-05	-1.3640703860284044e-05
56	0.0	4.3010752688088516e-05	8.977258078844393e-05
57	0.0	4.4099917342093054e-05	0.00017451458604662346
58	0.0	4.582711997876743e-05	0.00018263009777432784
59	0.0	4.6689743852610373e-05	0.00024685503020700056
60	0.0	6.816229902875114e-05	0.0002920524189348854
61	0.0	8.647627927515167e-05	0.00048766566600781094
62	0.0	9.00971013045648e-05	0.0006039537951253982
63	0.0	9.233048004118507e-05	0.0006130714306498363
64	0.0	0.00010859612148294672	0.0006429562620188721
65	0.0	0.0001288532710411738	0.0006848620211686418
66	0.0	0.0001356867832149079	0.0007895023329508887
67	0.0	0.00013845072912868964	0.0009429974134017895
68	0.0	0.0001510962696122143	0.001002666738572078
69	0.0	0.00017166395510731289	0.0010772944016432177
70	0.0	0.0001816431730017775	0.0011703327913543666
71	0.0	0.00018680694776551207	0.0012668113905673296
72	0.0	0.00020912588608473114	0.0015027117889554373
73	0.0	0.00021924555127474484	0.0015478695081503123
74	0.0	0.00023075971676514762	0.0015891882960794666
75	0.0	0.00024919318562943715	0.0016650906420556666
76	0.0	0.0002699988159737376	0.0017112690934450291
77	0.0	0.00027916143630086766	0.0018810996898632891
78	0.0	0.0003006208638722097	0.002015831893536574
79	0.0	0.0003172290008400852	0.0020866792290366786
80	0.0	0.0003287870978916363	0.002219484463352428
81	0.0	0.0003607265144436501	0.0022692218373179035
82	0.0	0.0003725581149052814	0.0023577761639076433
83	0.0	0.00039515482542945785	0.002539070169195749
84	0.0	0.00041743020807478716	0.0028673394464080017
85	0.0	0.0004425060149780829	0.003150217873064718
86	0.0	0.0004731215357178975	0.0032555974866990975
87	0.0	0.0005059467148516595	0.003271191907003501
88	0.0	0.0005417991077955615	0.00336765950896675
89	0.0	0.0005747288869073319	0.003430801801742458
90	0.0	0.0006155309474366712	0.0037325057646447916
91	0.0	0.0006520888579755191	0.004044320588187429
92	0.0	0.0007118154477318584	0.0045637420963374
93	0.0	0.000772935615185717	0.004824556355965647
94	0.0	0.0008313735867728675	0.005250905156406645
95	0.0	0.000910977050802675	0.0060032821941553485
96	0.0	0.0010173972880203929	0.006874319913531561
97	0.0	0.0011612654293241364	0.008146307515319693
98	0.0	0.0014098923104836473	0.009603004728219164
99	8.616140283538386e-05	0.0018665613042857052	0.011764258175283732
100	0.008091267706652472	0.023205515252557207	0.01255458515283836
