	1S	1M	1H
0	-0.0034849786453661213	-0.010134124600677308	-0.013958322292686565
1	-6.213952087215535e-05	-0.0016608079195486703	-0.010879541796355321
2	0.0	-0.0013388355713047995	-0.009364174872825282
3	0.0	-0.0011684396932265173	-0.007582115414910017
4	0.0	-0.00103038387363918	-0.0074255207644233455
5	0.0	-0.0009127113403732511	-0.006894250353055431
6	0.0	-0.0008294915802762137	-0.00630246888887239
7	0.0	-0.0007611258282222842	-0.0058254450737704145
8	0.0	-0.0007076403000701335	-0.005367569113379348
9	0.0	-0.0006683284497088948	-0.005230068979642276
10	0.0	-0.0006286691292513689	-0.005055694172220959
11	0.0	-0.0005885355678043891	-0.004655015753186218
12	0.0	-0.0005550933770972622	-0.004514863445898963
13	0.0	-0.0005254934269914702	-0.0042255380623848135
14	0.0	-0.000494157103816737	-0.003962096125257002
15	0.0	-0.0004627590597334752	-0.0037347291199910045
16	0.0	-0.0004356024979414385	-0.003247640708864923
17	0.0	-0.00040683163888424186	-0.0030725001115883767
18	0.0	-0.0003873102033355203	-0.0030286262275253774
19	0.0	-0.00036740802048796696	-0.0029346266596499805
20	0.0	-0.0003452641540138135	-0.0028893929089358616
21	0.0	-0.0003262511659229573	-0.0028657717066520494
22	0.0	-0.0003058281505535688	-0.002800855507417028
23	0.0	-0.0002825767611860397	-0.002627293128048418
24	0.0	-0.0002644839834686463	-0.0025759755846645805
25	0.0	-0.0002517617724542842	-0.002463316256568371
26	0.0	-0.0002361469662683291	-0.0023885340653298525
27	0.0	-0.00022164645944868332	-0.0023146618283579
28	0.0	-0.00020861341326925407	-0.0022150639339088584
29	0.0	-0.0001944931519075399	-0.0020324638162539533
30	0.0	-0.00018072685385974726	-0.00201563079606758
31	0.0	-0.00016522908914688104	-0.0019291169607506653
32	0.0	-0.00015331068123500375	-0.0016847152356426335
33	0.0	-0.00014065621053182428	-0.0015522524361618404
34	0.0	-0.00012814735266627683	-0.0014437110583835765
35	0.0	-0.00011831637374262184	-0.0011019241176573997
36	0.0	-0.00010554359901723058	-0.0009220893993754189
37	0.0	-9.344000114968497e-05	-0.0008699821632126702
38	0.0	-8.350543257893408e-05	-0.0008489830142718868
39	0.0	-7.200544654686112e-05	-0.0007924076144692081
40	0.0	-6.220789505295699e-05	-0.0007679924712377995
41	0.0	-5.507276862016354e-05	-0.0007157411499780065
42	0.0	-4.554714090681882e-05	-0.0006540479406413181
43	0.0	-3.275342135677707e-05	-0.0006435791931974899
44	0.0	-2.4911353237091483e-05	-0.0006344263083490986
45	0.0	-1.5631838929275332e-05	-0.0006141971708689463
46	0.0	-1.1814548453519258e-05	-0.0004900127154966658
47	0.0	-3.086185006442311e-06	-0.00043496464420542667
48	0.0	0.0	-0.0003643286603823451
49	0.0	0.0	-0.0002564554763672866
50	0.0	0.0	-0.00024582542518297723
51	0.0	0.0	-0.0001457000530563194
52	0.0	6.241531807926747e-06	-3.947998081463826e-05
53	0.0	1.5291061730065005e-05	0.00014813690522364143
54	0.0	2.4019011482057125e-05	0.00020968363388120453
55	0.0	3.099562290163061e-05	0.0003778337979934323
56	0.0	3.737000009495618e-05	0.0004407461511124744
57	0.0	4.651794015678057e-05	0.0005405589689345678
58	0.0	5.5933889679646856e-05	0.0005863304227476405
59	0.0	6.429675422824131e-05	0.0006219886352250212
60	0.0	7.422066147935177e-05	0.0006741535923830087
61	0.0	8.471525592343973e-05	0.0007329123050603939
62	0.0	9.357980173541058e-05	0.0008130633356419859
63	0.0	0.00010294305116023136	0.0008951663380317742
64	0.0	0.00011170685982697225	0.0009204921230379167
65	0.0	0.00012169035759994615	0.001029041364919126
66	0.0	0.00013186609599694424	0.0011489743334143973
67	0.0	0.00014153563852755012	0.0012392069045165457
68	0.0	0.00015476550093833203	0.0013589856092009447
69	0.0	0.00016750333110275394	0.0015585754908001958
70	0.0	0.0001811702014739235	0.0017580947257738841
71	0.0	0.00019486624967582686	0.0018902052475193096
72	0.0	0.0002113898902737965	0.0019731594047469863
73	0.0	0.00022696232828390615	0.002079393696216599
74	0.0	0.0002444334842874338	0.002123726894631064
75	0.0	0.0002577992727033074	0.0021992390786273464
76	0.0	0.000274478060063812	0.002286840104387071
77	0.0	0.0002911781533135338	0.0023694185537454612
78	0.0	0.00030867513067278207	0.0024570404216493506
79	0.0	0.00032841000763684125	0.0025583158314487937
80	0.0	0.0003493124669336823	0.0029632634238594855
81	0.0	0.00037083449940592764	0.0030633573839323304
82	0.0	0.000394278657737912	0.00324994678565226
83	0.0	0.00041849263834131017	0.003482051680363544
84	0.0	0.0004392761793843114	0.003541901740786697
85	0.0	0.0004665496440190653	0.003616572484989188
86	0.0	0.0004952984402422709	0.003703622079167159
87	0.0	0.0005297333907877057	0.0037913318593327007
88	0.0	0.0005605104060283405	0.004259059656921646
89	0.0	0.0005962870589278468	0.004500947980014147
90	0.0	0.0006277942702116234	0.004935830805225928
91	0.0	0.0006718023620178838	0.005128457642034005
92	0.0	0.0007122412397321652	0.0053698972410351955
93	0.0	0.000749354788788979	0.005497326114451029
94	0.0	0.0008128563716082216	0.005569635665763663
95	0.0	0.0008983049123193238	0.005997025249817219
96	0.0	0.0009821804043096095	0.008021263533107687
97	0.0	0.001102062745875729	0.010320359613365766
98	0.0	0.0013382266854458978	0.012069614777423271
99	6.19468188641426e-05	0.0017052077061214493	0.01397957927611734
100	0.002524763284221798	0.006048004928442152	0.015277116278509029
