	1S	1M	1H
0	-0.004297452861898199	-0.02118378275004751	-0.04387682743569321
1	0.0	-0.0038166672850895996	-0.017401543274232142
2	0.0	-0.003001227078778679	-0.015660479059899878
3	0.0	-0.0026097324268169607	-0.015459643881181595
4	0.0	-0.002324878949839086	-0.015379820231550849
5	0.0	-0.0020775885862965244	-0.01485653906349948
6	0.0	-0.0019157456890323864	-0.014334061244808145
7	0.0	-0.001773053650552181	-0.013693081921626915
8	0.0	-0.0016536445413544375	-0.013189735971273871
9	0.0	-0.0015423975009722347	-0.012849789893409506
10	0.0	-0.00144855135885924	-0.012458029915631842
11	0.0	-0.0013678037618504834	-0.011969272243498037
12	0.0	-0.0012916645754282418	-0.009700954605345397
13	0.0	-0.0012223781556231273	-0.009249593791971017
14	0.0	-0.0011534959456779	-0.008432754890578846
15	0.0	-0.001088159406971273	-0.007679146263262587
16	0.0	-0.0010366345236384378	-0.007404754589359909
17	0.0	-0.0009959094052575455	-0.0066854565796805356
18	0.0	-0.0009440191474319293	-0.006148333822381673
19	0.0	-0.0008928654629656041	-0.00562259304603853
20	0.0	-0.0008398319727182634	-0.005047122099443757
21	0.0	-0.0007891520981923516	-0.004842372223580229
22	0.0	-0.0007466121455266816	-0.004415573993894335
23	0.0	-0.0006979819899550943	-0.004332617274460251
24	0.0	-0.0006508262984533353	-0.004260235773623591
25	0.0	-0.0006145789703531634	-0.0039470163779832534
26	0.0	-0.0005768522617913785	-0.0036751221880757076
27	0.0	-0.0005351196351740749	-0.003459033974758219
28	0.0	-0.000494279288311028	-0.003404654540410763
29	0.0	-0.0004577422958239153	-0.0033596945718229257
30	0.0	-0.0004276838680542406	-0.003269827091693722
31	0.0	-0.00038807975564357554	-0.0030843548064862824
32	0.0	-0.0003519316489389544	-0.003057930989413431
33	0.0	-0.0003132383041536445	-0.0027475288413777977
34	0.0	-0.0002820203506342955	-0.0022718018192933414
35	0.0	-0.00025305590984863737	-0.002080109572689865
36	0.0	-0.00022440083222343254	-0.001749480855602328
37	0.0	-0.00019829873121358867	-0.0016224476853595048
38	0.0	-0.00017101505679946173	-0.0015163838702297516
39	0.0	-0.00014338644034189385	-0.0013454131737472286
40	0.0	-0.00011581155672195606	-0.0010690616609448035
41	0.0	-9.169341630773222e-05	-0.0010153173620716172
42	0.0	-6.14670603881071e-05	-0.0009082153753210307
43	0.0	-3.830684283410712e-05	-0.0006165470720190232
44	0.0	-9.235355535981426e-06	-0.0005406825161697879
45	0.0	0.0	-0.0005032387609507246
46	0.0	0.0	-0.0004391162945918747
47	0.0	0.0	-0.00021371015616514417
48	0.0	0.0	8.776758271871176e-05
49	0.0	0.0	0.00016783562245754156
50	0.0	0.0	0.00024313968452449597
51	0.0	0.0	0.00044193072644227015
52	0.0	0.0	0.0005718401008113453
53	0.0	0.0	0.0007845064667216762
54	0.0	0.0	0.0009357603309922304
55	0.0	0.0	0.0010147371444930837
56	0.0	0.0	0.0011665912534986687
57	0.0	0.0	0.0012359027069088135
58	0.0	1.1437820215967061e-05	0.0013395410510645212
59	0.0	4.026327272856673e-05	0.0013775498470584213
60	0.0	6.416466066192503e-05	0.0020270142215957692
61	0.0	9.232405933738744e-05	0.0021873160111161583
62	0.0	0.00012417952114092125	0.0028273483408128163
63	0.0	0.00015568612283891866	0.003255398083671607
64	0.0	0.00019096824189086093	0.003484237918187762
65	0.0	0.00021981666764705492	0.003679483106271419
66	0.0	0.00026019534897017146	0.004098573495628539
67	0.0	0.00029974061290757745	0.004209772608160824
68	0.0	0.0003372413100104856	0.00441270504007532
69	0.0	0.00037527769362004837	0.004572095780346648
70	0.0	0.000413190734097623	0.004714942304660274
71	0.0	0.00045663061571857825	0.004896208519254036
72	0.0	0.000495202771579617	0.005361710050491241
73	0.0	0.0005334419188151873	0.005502324770303068
74	0.0	0.0005793238230999531	0.005618185198868888
75	0.0	0.0006295130715959774	0.005836038211632477
76	0.0	0.0006741367479002491	0.006220781905931095
77	0.0	0.0007111465401521966	0.006335880568577029
78	0.0	0.0007659213747548631	0.006525954104854777
79	0.0	0.0008123546409620056	0.0066720217440826195
80	0.0	0.0008615152939416947	0.007015884966008867
81	0.0	0.0009113410789027387	0.007151296630485141
82	0.0	0.0009665972452582623	0.007439517489738421
83	0.0	0.0010183609874411534	0.0075752977275041
84	0.0	0.0010872215186651167	0.007832116808770611
85	0.0	0.0011556160504803791	0.007926387798905254
86	0.0	0.001217970169233938	0.008377146362559663
87	0.0	0.0012917567326971345	0.008542073435540833
88	0.0	0.0013711117924255236	0.009638482723023324
89	0.0	0.0014473352398790816	0.009877773940469084
90	0.0	0.0015402953619796601	0.010214032531108651
91	0.0	0.0016475133562180726	0.010881259916813253
92	0.0	0.001751411646447823	0.012528386839078599
93	0.0	0.0018628802222021039	0.013563075632384018
94	0.0	0.0020053067331564423	0.013793319173260323
95	0.0	0.002193614871963844	0.0144201834162076
96	0.0	0.0023967747121111855	0.015117694773547359
97	0.0	0.0026548379457249976	0.016370469337203868
98	0.0	0.003107926966134996	0.0195717916845626
99	0.0	0.003894520074698701	0.02258161770146059
100	0.006050971745038991	0.015540125643568992	0.02824077191307195
