	1S	1M	1H
0	-0.0034186281045417433	-0.010434244571942863	-0.01619789469008792
1	0.0	-0.0021259401927448207	-0.01079639076768854
2	0.0	-0.0017086942358024524	-0.0091991943426363
3	0.0	-0.0014888196762113848	-0.008559895958980759
4	0.0	-0.0013241472234733153	-0.007874789901204524
5	0.0	-0.0012012399290201982	-0.0069393154693763726
6	0.0	-0.00109801212819409	-0.006215617545078021
7	0.0	-0.001014433477041383	-0.005952395465056569
8	0.0	-0.0009526364575361023	-0.005599268800107131
9	0.0	-0.0008904037085415372	-0.005491561906983192
10	0.0	-0.0008317980883895904	-0.005460534123936767
11	0.0	-0.0007856483378213985	-0.005184560120895344
12	0.0	-0.000739387365404669	-0.004944095627206204
13	0.0	-0.0007066069786251339	-0.004898628352697515
14	0.0	-0.0006658480441271086	-0.004860553143075361
15	0.0	-0.0006254393371899813	-0.004778553723086781
16	0.0	-0.0005921869138854685	-0.004707319190346598
17	0.0	-0.0005631971015612902	-0.004547982681701488
18	0.0	-0.0005294969857001663	-0.0039427206483836534
19	0.0	-0.0004982088135773378	-0.0037718499117752368
20	0.0	-0.0004662663618342888	-0.0034529741879249847
21	0.0	-0.000439188234827933	-0.00325293042410299
22	0.0	-0.00040647600953100263	-0.003098214759195652
23	0.0	-0.00037660321662412287	-0.003001099495826408
24	0.0	-0.00035248007496090577	-0.002775340288895425
25	0.0	-0.00032836899325877633	-0.0026415215579730367
26	0.0	-0.0003075010526664457	-0.002516284221296066
27	0.0	-0.0002824024688011228	-0.0024790424444768484
28	0.0	-0.00026018026978189994	-0.002235164139620801
29	0.0	-0.00023841546713154196	-0.0021320677104279427
30	0.0	-0.00021918870294209694	-0.002077467127789789
31	0.0	-0.0001988684602391955	-0.0018534417176457052
32	0.0	-0.00018103012911022885	-0.0017566665520524526
33	0.0	-0.00016033966045901114	-0.0017163397165539229
34	0.0	-0.0001426626367497574	-0.0016737645765799148
35	0.0	-0.00012291829465234686	-0.00156905239662839
36	0.0	-0.00010795350661094716	-0.0014938113678882826
37	0.0	-9.08015268762563e-05	-0.001397208400923472
38	0.0	-7.559959306733033e-05	-0.0012937721863084505
39	0.0	-6.065388585815734e-05	-0.0010601335090567403
40	0.0	-4.4472079489099524e-05	-0.0008261674866849593
41	0.0	-2.913268872012385e-05	-0.0007789549703208254
42	0.0	-1.623027434424418e-05	-0.0007194664077541812
43	0.0	-2.9035679972244606e-06	-0.00045309900588491435
44	0.0	0.0	-0.0003811985769130687
45	0.0	0.0	-0.000337702896951869
46	0.0	0.0	-0.00029425434535802026
47	0.0	0.0	-0.0002480888475787094
48	0.0	0.0	-0.00014561444621044074
49	0.0	0.0	2.7136155456772715e-05
50	0.0	0.0	0.0003273684498471541
51	0.0	0.0	0.00047327010660494853
52	0.0	0.0	0.0006261056018323431
53	0.0	0.0	0.0007979612575216321
54	0.0	0.0	0.000911462666753078
55	0.0	0.0	0.0009703359517862057
56	0.0	1.1413773608639553e-05	0.0010442132927950183
57	0.0	2.3850564117136007e-05	0.0011080570252241827
58	0.0	3.8145613805489144e-05	0.00112136170966715
59	0.0	5.3801314273294e-05	0.0012789732486449415
60	0.0	7.146803905087033e-05	0.001425481536550688
61	0.0	8.833344602181545e-05	0.0014744451782581194
62	0.0	0.00010220611696913894	0.0016319543177364664
63	0.0	0.00012282598658625244	0.0016936514077307606
64	0.0	0.00013860235247420866	0.001739621553482724
65	0.0	0.0001570719876192174	0.0018188703972308426
66	0.0	0.00017997962961801233	0.0019122669311011941
67	0.0	0.00019964154254095595	0.0019882018284865864
68	0.0	0.00021685969193166346	0.0022072956194374173
69	0.0	0.00023481869119632324	0.002383096697228904
70	0.0	0.00025543609237947955	0.0028109729767056254
71	0.0	0.00027519502495297436	0.0029457206832165695
72	0.0	0.00029952451331270784	0.0034563031912038245
73	0.0	0.00032083672303466986	0.003636956459727087
74	0.0	0.00034138952910865326	0.003839377595796583
75	0.0	0.0003638055271944496	0.004108315334324042
76	0.0	0.00038798282170961147	0.004272039480343146
77	0.0	0.00041508695868802453	0.004408757892046283
78	0.0	0.00043892258896559343	0.004637560410428336
79	0.0	0.0004631332279446122	0.004655210063916901
80	0.0	0.0004941455732672578	0.004798271240061424
81	0.0	0.0005232818293235453	0.005073773699751703
82	0.0	0.0005516507295622519	0.00518241569254529
83	0.0	0.0005745015050466872	0.005255687858036895
84	0.0	0.000607639754699818	0.005418551735920536
85	0.0	0.0006445512318173913	0.005626078894765827
86	0.0	0.0006840460516880988	0.0056731498918351966
87	0.0	0.0007283429285501072	0.005782357419588715
88	0.0	0.0007746147471672954	0.005867746600379675
89	0.0	0.0008206108659477662	0.0062978514842611496
90	0.0	0.0008826410645456085	0.006822383624813933
91	0.0	0.0009354335900956398	0.007339605829872144
92	0.0	0.0009934819046781662	0.007955955581713782
93	0.0	0.0010595633007334944	0.008857559368566473
94	0.0	0.0011419456392837103	0.010264254954137467
95	0.0	0.0012254090249495086	0.01103367591118562
96	0.0	0.0013541859432938974	0.011670164100893119
97	0.0	0.0015076645161930012	0.012131846727628336
98	0.0	0.0017023409851556661	0.013459219617530948
99	0.0	0.0020756621890615627	0.0156691465210655
100	0.002756725410152372	0.00552976297980412	0.022626720896830266
