	1S	1M	1H
0	-0.02079873057302184	-0.05852622850034983	-0.15917806236885912
1	-0.0009057398182894894	-0.011371343687952812	-0.11599292131954445
2	-0.00023659112800297424	-0.007716480372267824	-0.06794979820287778
3	0.0	-0.0062230934081222555	-0.06211407313017749
4	0.0	-0.005383453434402803	-0.04427774361365388
5	0.0	-0.004662423990919922	-0.038484497038024014
6	0.0	-0.004193611827661215	-0.034702636682689726
7	0.0	-0.003713809133508061	-0.02989088372603342
8	0.0	-0.0034182590457605944	-0.028593168243036475
9	0.0	-0.0031239895111831385	-0.025473196359594368
10	0.0	-0.0028868268035343696	-0.022100248670792424
11	0.0	-0.002652370941665887	-0.020798894835610524
12	0.0	-0.002489968616436342	-0.019227914610374416
13	0.0	-0.0023210175845778946	-0.018318275391173967
14	0.0	-0.0022063875020557062	-0.015523696965307318
15	0.0	-0.0020865628398069494	-0.014916760368564829
16	0.0	-0.0019643641145439482	-0.01424506690317541
17	0.0	-0.0018597476319523354	-0.012964596650961394
18	0.0	-0.0017591095435965532	-0.011964064039515552
19	0.0	-0.0016711390872588962	-0.011200384823571472
20	0.0	-0.0015877577772674734	-0.010785008929734552
21	0.0	-0.0014989421840099991	-0.01068927536056984
22	0.0	-0.001421814337882785	-0.010394103798185778
23	0.0	-0.0013483367581295302	-0.010327941416411694
24	0.0	-0.001276814558493906	-0.009758940358526754
25	0.0	-0.0012037975970967674	-0.009134316974887924
26	0.0	-0.0011440783918446674	-0.009075769684546995
27	0.0	-0.00108416508391306	-0.008805216163949824
28	0.0	-0.0010153653156370756	-0.008023111015476533
29	0.0	-0.00096099912288534	-0.00783439800990897
30	0.0	-0.0009007686025184537	-0.007662335045865819
31	0.0	-0.0008469507186023729	-0.007375951787161624
32	0.0	-0.0007949868078318677	-0.0072473702798220435
33	0.0	-0.0007468535727539982	-0.006743896209981339
34	0.0	-0.0007026127738736853	-0.006252685154064099
35	0.0	-0.0006583447003861986	-0.005989661032340389
36	0.0	-0.000620569442527863	-0.005669176162392883
37	0.0	-0.0005795302254709344	-0.005201633512164766
38	0.0	-0.0005276951246457729	-0.004929362513423445
39	0.0	-0.0004862457708448476	-0.004721605502184887
40	0.0	-0.00044142509800604296	-0.004293210081698673
41	0.0	-0.000394566049763512	-0.0038332513221872692
42	0.0	-0.00034752947108175115	-0.003657855224652757
43	0.0	-0.00030728251256102566	-0.003548842983684039
44	0.0	-0.0002667443764085276	-0.0034241816503302307
45	0.0	-0.00022662795792185433	-0.0032069807865264164
46	0.0	-0.00018343066944632053	-0.002481663606071577
47	0.0	-0.00014819226085276192	-0.0021587909845197013
48	0.0	-0.00010414803127546168	-0.00184305832558914
49	0.0	-6.5189521769341e-05	-0.0018036277188297912
50	0.0	-2.5577505884333274e-05	-0.001776457238148843
51	0.0	0.0	-0.0016570541940608557
52	0.0	0.0	-0.0014032723828685874
53	0.0	0.0	-0.001163706316876809
54	0.0	8.858702106940511e-06	-0.0010128507464461551
55	0.0	4.655312466389532e-05	6.964536109317413e-05
56	0.0	8.599360504796053e-05	0.00031580063692364363
57	0.0	0.0001285844508779598	0.0004218261654777166
58	0.0	0.00016688031647074992	0.0005732905978517921
59	0.0	0.00021125273461791494	0.0007166631361132092
60	0.0	0.000256576931103547	0.0008676675753492625
61	0.0	0.0003023958049017937	0.0009939020015333072
62	0.0	0.00034137196741153004	0.0010216400427272721
63	0.0	0.0003831658292419094	0.0012131897141242896
64	0.0	0.00043154882012773446	0.0015964502809296284
65	0.0	0.0004817394080049777	0.0018413640622249139
66	0.0	0.0005249326616063458	0.002695983450620129
67	0.0	0.0005749380516406745	0.0031906380775138877
68	0.0	0.0006261804327458975	0.0034092655440952774
69	0.0	0.0006889146751637384	0.003633227247141886
70	0.0	0.0007416865817801978	0.003973965091866871
71	0.0	0.0008000014220584583	0.004147188146152288
72	0.0	0.0008645494056580994	0.004559626088928485
73	0.0	0.0009284164840349174	0.00473537949804779
74	0.0	0.000988659863417607	0.005037444518116588
75	0.0	0.001058792422636179	0.005361431114927484
76	0.0	0.0011288230291493129	0.005583740471640013
77	0.0	0.0012093276607632619	0.006469808535239515
78	0.0	0.0012866031959520852	0.0072006113584147085
79	0.0	0.0013734455826513677	0.007853872315810324
80	0.0	0.0014665544186428737	0.008712230877773258
81	0.0	0.001554741067522534	0.00929251747636663
82	0.0	0.0016716706810245697	0.00934237109719708
83	0.0	0.0017905565787170881	0.009826259994169214
84	0.0	0.0019139019890371956	0.010792525392081602
85	0.0	0.002051948064755426	0.011789580090987134
86	0.0	0.0021924907442674546	0.013129309224663026
87	0.0	0.002347032801372333	0.014154789822048493
88	0.0	0.002513545869272101	0.015496418493227745
89	0.0	0.0027382379616698476	0.01711638392171582
90	0.0	0.002972199661976417	0.019045323647820512
91	0.0	0.003213425092356947	0.020247335619208266
92	0.0	0.0034545045258732813	0.023576501433066145
93	0.0	0.0037966944513225923	0.02492911163609246
94	0.0	0.004180002641381823	0.02688302262809597
95	0.0	0.004688066344120953	0.028725462774969946
96	0.0	0.005413182470012288	0.030864203506468263
97	0.0	0.006444808755382781	0.03448062196892913
98	0.0002580271756923499	0.007765640493448158	0.05314682950165466
99	0.0008936167969182296	0.010965655316874148	0.07548655816217803
100	0.02190308877092817	0.06395870736086184	0.1951982523674698
