	1S	1M	1H
0	-0.0028342541180174097	-0.01331680146864489	-0.025967932950714756
1	-1.4422647302372304e-05	-0.002934362904292073	-0.02160603390802781
2	0.0	-0.00215616021285318	-0.017906602796731435
3	0.0	-0.001833532474682905	-0.01325337334010991
4	0.0	-0.001659617792191601	-0.01168070164935707
5	0.0	-0.0014982746936629875	-0.010372740837823325
6	0.0	-0.0013782753700773353	-0.009032060220780371
7	0.0	-0.0012762885014053749	-0.008950605709088464
8	0.0	-0.0011818010606701934	-0.008863207990380775
9	0.0	-0.00111178262592999	-0.008625760473137883
10	0.0	-0.0010330421483398019	-0.007804159883032835
11	0.0	-0.0009612489963480753	-0.006884247171774679
12	0.0	-0.0009037257221133376	-0.006578930684345217
13	0.0	-0.0008523247273787015	-0.006327409315719096
14	0.0	-0.0007965198129694182	-0.005834080455965028
15	0.0	-0.0007473422107058425	-0.00516334928924263
16	0.0	-0.0007085395056584697	-0.004880353277719478
17	0.0	-0.0006735659336468214	-0.0045982041538046555
18	0.0	-0.0006367224568281026	-0.004084689220182629
19	0.0	-0.0006034988413084652	-0.004037888922965518
20	0.0	-0.0005622681065406975	-0.003932298621947972
21	0.0	-0.0005246448079578358	-0.0038744472290967156
22	0.0	-0.0004910766536375033	-0.0037944742559927564
23	0.0	-0.0004612171241930196	-0.0036017296862869063
24	0.0	-0.0004254403158549058	-0.003361604425122473
25	0.0	-0.00039695706211553827	-0.0031204388087641977
26	0.0	-0.0003673298042217921	-0.0028853745635514993
27	0.0	-0.0003404538593820982	-0.002819254742140408
28	0.0	-0.00031613221421580737	-0.0026020536407773986
29	0.0	-0.00028669896540628356	-0.002494473224177397
30	0.0	-0.0002634017012840606	-0.002386351193982972
31	0.0	-0.00023916848959659956	-0.002231795823354688
32	0.0	-0.00021620232433992463	-0.0019971434474973164
33	0.0	-0.0001947485625041423	-0.0016867177366203957
34	0.0	-0.00017160104123259412	-0.0015984360133549334
35	0.0	-0.0001491773956500131	-0.0014025962292375468
36	0.0	-0.00012191841941440628	-0.001279671003169054
37	0.0	-9.99037256958024e-05	-0.0012581715986920094
38	0.0	-7.781611909903231e-05	-0.0010778691558077735
39	0.0	-5.943379011585151e-05	-0.0010159522728002625
40	0.0	-4.2241437779133566e-05	-0.0009785509372838065
41	0.0	-2.090448202913498e-05	-0.000876517119007323
42	0.0	0.0	-0.0007472120420241012
43	0.0	0.0	-0.0006510299978713963
44	0.0	0.0	-0.00040487093956730026
45	0.0	0.0	-0.00022899360483332108
46	0.0	0.0	-9.979781532132294e-05
47	0.0	0.0	-5.9121626480889414e-05
48	0.0	0.0	4.4275560926080926e-05
49	0.0	0.0	0.00023666577196594914
50	0.0	0.0	0.0004935037587533442
51	0.0	0.0	0.0007013215892311656
52	0.0	0.0	0.0008973894425461552
53	0.0	0.0	0.0010346545121642443
54	0.0	0.0	0.001186861419822694
55	0.0	0.0	0.001272922223563955
56	0.0	0.0	0.0014186978577530958
57	0.0	1.0357455075320186e-05	0.0014798513060671659
58	0.0	3.055284037163372e-05	0.0015341247785316536
59	0.0	5.0634438278374086e-05	0.001675671376076855
60	0.0	6.822422758521183e-05	0.0018843891320660777
61	0.0	8.779216675736996e-05	0.002019631134074971
62	0.0	0.00011222800682028743	0.0020637220422038065
63	0.0	0.0001342680782355444	0.0022950545868821544
64	0.0	0.0001611266597314833	0.0023528934284115354
65	0.0	0.00018263651587898674	0.0024603157699760623
66	0.0	0.00020527249127906267	0.0027456903139412643
67	0.0	0.00022405242592753679	0.002926366362389441
68	0.0	0.00024886673515406527	0.0030560472895602513
69	0.0	0.0002761836970867468	0.0032892935241010356
70	0.0	0.0002979957167482448	0.0033547378191274065
71	0.0	0.00032406298307168885	0.003453148914335302
72	0.0	0.0003494766727156762	0.0035142760785483148
73	0.0	0.0003786811319673111	0.0035537440647653426
74	0.0	0.0004039431191323661	0.003651104406524368
75	0.0	0.00043379843180207933	0.0036571073800301668
76	0.0	0.00046470687201981774	0.0038844871430834442
77	0.0	0.0004962263990620008	0.004274509559995823
78	0.0	0.0005277202489274791	0.00435169370023651
79	0.0	0.0005613057308971087	0.004786427154942475
80	0.0	0.0005935306506139609	0.004854175585928422
81	0.0	0.0006375032931470747	0.004992540041737745
82	0.0	0.0006746685300022247	0.005440537101585282
83	0.0	0.0007073252106853567	0.005852600746617613
84	0.0	0.0007541982146794891	0.006166704259734016
85	0.0	0.00079899398506692	0.006261743915680629
86	0.0	0.0008498582483594365	0.0063320958401321065
87	0.0	0.0008991690528076645	0.006487696996439718
88	0.0	0.0009443471309671653	0.006536401355268593
89	0.0	0.0010050738519883737	0.007489443694540352
90	0.0	0.0010739877984616846	0.007730286354212115
91	0.0	0.0011467128886555357	0.007901484803145576
92	0.0	0.0012246126816208938	0.008491867303759615
93	0.0	0.0013130905826530337	0.009143989766361776
94	0.0	0.0014049455199248407	0.011128628984744472
95	0.0	0.0015130969140144535	0.012085937404540472
96	0.0	0.0016435963999480133	0.013764529326050707
97	0.0	0.0018474883647025602	0.015335960444377973
98	0.0	0.0021386997762384446	0.017020976037108306
99	1.8860183560320666e-05	0.0026650791945807164	0.018996425621845073
100	0.00323687681096696	0.01172211900033071	0.024915823270406534
