	1S	1M	1H
0	-0.002941935124055939	-0.010683082651096965	-0.013865874200572503
1	0.0	-0.002474933790189032	-0.012794173306355
2	0.0	-0.0018949665344102607	-0.011082844778262123
3	0.0	-0.0015945197875612094	-0.010030169620137941
4	0.0	-0.0013944481493930682	-0.010022354618704621
5	0.0	-0.0012608108470139768	-0.009101307808945337
6	0.0	-0.0011551728496393189	-0.0074673947313947985
7	0.0	-0.0010532907282179969	-0.006993792162553671
8	0.0	-0.000963576714916492	-0.006702148062718738
9	0.0	-0.0008868961383633556	-0.006390593156433817
10	0.0	-0.0008374674719168862	-0.005762107363284486
11	0.0	-0.0007780401281165916	-0.005585650009455996
12	0.0	-0.0007256299806279421	-0.005455448278901787
13	0.0	-0.0006788693249660294	-0.005313292235314383
14	0.0	-0.0006333596435994316	-0.005276097502334378
15	0.0	-0.0005947857338166829	-0.004712316331731742
16	0.0	-0.0005536688334229733	-0.004595262419097233
17	0.0	-0.0005183078251119266	-0.004500181354603653
18	0.0	-0.00048509393476934724	-0.0043186075523188655
19	0.0	-0.00045541166953472103	-0.003980243940011886
20	0.0	-0.00042005930758337584	-0.0034121904009772
21	0.0	-0.00039322884015015476	-0.0031926882391605294
22	0.0	-0.0003713682812264163	-0.0029476632860277016
23	0.0	-0.0003451070991436733	-0.0027578595261151615
24	0.0	-0.00032005370223331386	-0.0025869024878133473
25	0.0	-0.00029357772692123474	-0.002466741670428374
26	0.0	-0.0002720713563282628	-0.0023570941692511926
27	0.0	-0.0002506462873600412	-0.0022637179240313442
28	0.0	-0.0002275896785375453	-0.002146259100106435
29	0.0	-0.00020557623364072424	-0.0021032686132423663
30	0.0	-0.00018764073130983494	-0.002081340020434197
31	0.0	-0.00016875939164734405	-0.0020575028516358874
32	0.0	-0.00015015024283898	-0.0019376785476211732
33	0.0	-0.00013188277055769748	-0.0018898447350872306
34	0.0	-0.00011654176165913682	-0.0017954395847885516
35	0.0	-9.950787530232383e-05	-0.001683064430647602
36	0.0	-8.436158666067948e-05	-0.0014178437272017376
37	0.0	-6.923319114500836e-05	-0.001305273550493451
38	0.0	-5.488454506821672e-05	-0.0011555597622952061
39	0.0	-3.8986933741331775e-05	-0.0010962598906540566
40	0.0	-2.475982299716667e-05	-0.0010662704304185589
41	0.0	-1.3828789524484866e-05	-0.000968336333870693
42	0.0	-3.4959677510237865e-06	-0.000878293439495601
43	0.0	0.0	-0.0008276884220470137
44	0.0	0.0	-0.0007438947659936133
45	0.0	0.0	-0.0007185940665793144
46	0.0	0.0	-0.0006179220046571647
47	0.0	0.0	-0.0005078437206130649
48	0.0	0.0	-0.00047185990705069837
49	0.0	0.0	-0.0002679235656590786
50	0.0	0.0	-0.00019522674262817397
51	0.0	0.0	-0.00011871180301416847
52	0.0	0.0	0.0002728978936846726
53	0.0	0.0	0.00037981410197171614
54	0.0	0.0	0.0004764262609617825
55	0.0	0.0	0.0005491756130751924
56	0.0	0.0	0.0006024066191157298
57	0.0	0.0	0.0006496573729591337
58	0.0	7.283063041538442e-16	0.0007300574949179327
59	0.0	1.4599205274756757e-05	0.0009103304875440044
60	0.0	2.781510343758952e-05	0.0010222418687278808
61	0.0	4.229898191963723e-05	0.0012965955977446702
62	0.0	5.6049071854675765e-05	0.0014320043236145585
63	0.0	6.993432473620942e-05	0.00162773909767171
64	0.0	8.397993230101264e-05	0.0016615451190640316
65	0.0	9.830973176732107e-05	0.0016824045812391052
66	0.0	0.00011577666197931008	0.0017418616844001276
67	0.0	0.00013576130738851563	0.001838018747936896
68	0.0	0.0001543704561868786	0.0020516516844318834
69	0.0	0.00017324634418405008	0.002158724596489998
70	0.0	0.00019257725668964028	0.002245061317978302
71	0.0	0.00021502873547674103	0.0023726785286733347
72	0.0	0.00023631725758095358	0.0028103227275119644
73	0.0	0.0002593443948338692	0.0029024219910814475
74	0.0	0.00028825731285922365	0.0030517688898487314
75	0.0	0.00031352765281572603	0.003305633043176104
76	0.0	0.00033976161611697363	0.003674229243975669
77	0.0	0.00036727108492975226	0.0037619012108239215
78	0.0	0.0003901953466850916	0.0038911477095025047
79	0.0	0.0004156916440425407	0.004030284883214846
80	0.0	0.0004450309002845826	0.004192293694048386
81	0.0	0.00047748884931115903	0.004714610664860415
82	0.0	0.0005104958012872446	0.004750340732211415
83	0.0	0.0005440097681500487	0.00513091721638993
84	0.0	0.0005790073962958609	0.005272658389331166
85	0.0	0.0006244522270509311	0.005294637195468455
86	0.0	0.0006694734918347979	0.005421476743354839
87	0.0	0.0007173605211530443	0.005839680017599386
88	0.0	0.0007639397131215468	0.006241832983621614
89	0.0	0.0008342190084483002	0.007153486266997206
90	0.0	0.0008904543807246369	0.007859971711877493
91	0.0	0.0009554625347369727	0.008417918022892379
92	0.0	0.001024139562459201	0.008581442962760154
93	0.0	0.0011038797470836986	0.009023195687997164
94	0.0	0.001186278049206142	0.009132483451143597
95	0.0	0.001288596440794852	0.01016770100493723
96	0.0	0.0014562137927991087	0.011600564384570272
97	0.0	0.001627680489367666	0.012448808300299256
98	0.0	0.0019184877941921385	0.017637867677402552
99	0.0	0.0026021224092038285	0.018798299593539444
100	0.003160185844041541	0.00647106138450293	0.020311347203777474
