	1S	1M	1H
0	-0.0026575150685441695	-0.009581751768274027	-0.03357355568790987
1	0.0	-0.0034071598505595727	-0.02310991251008688
2	0.0	-0.0026650649543660636	-0.016125259955961407
3	0.0	-0.0021626636253496987	-0.014700972495885709
4	0.0	-0.001938999801763295	-0.013875596828586611
5	0.0	-0.0017519478442363625	-0.013380885423835042
6	0.0	-0.0015826369023310227	-0.011648723843599683
7	0.0	-0.0014548853329705179	-0.01104633526410573
8	0.0	-0.0013488405036589503	-0.01035194674420466
9	0.0	-0.0012531166372437776	-0.00905616127718421
10	0.0	-0.001160796711333323	-0.008351821456893138
11	0.0	-0.0010940085495715346	-0.008103419938700708
12	0.0	-0.0010327450625255753	-0.007393062058652489
13	0.0	-0.00097244141139602	-0.007141969484264826
14	0.0	-0.0009244007959074141	-0.006996818561535005
15	0.0	-0.0008758939368605835	-0.006620104348708794
16	0.0	-0.0008258857629941253	-0.006263559400277124
17	0.0	-0.0007793530120668599	-0.006023149730240193
18	0.0	-0.000736548582505503	-0.005929758895188042
19	0.0	-0.0006939048408042736	-0.00592297566767764
20	0.0	-0.0006541817608672451	-0.0055020947352172785
21	0.0	-0.0006164054252833694	-0.005397557763965986
22	0.0	-0.0005813998803388665	-0.005197208121307917
23	0.0	-0.0005476823613311432	-0.004991494815260968
24	0.0	-0.0005081720640486287	-0.0049008603142597675
25	0.0	-0.000474320638047393	-0.0044356989766101695
26	0.0	-0.0004455049605260686	-0.00414453741723728
27	0.0	-0.0004165243135973118	-0.004104887452470151
28	0.0	-0.0003859988246820478	-0.004052298834073528
29	0.0	-0.0003558865278639878	-0.003378929041400914
30	0.0	-0.0003272456415803316	-0.0032802421446527672
31	0.0	-0.00029497645801366054	-0.002918875897153083
32	0.0	-0.00027201094091352303	-0.0027117283573013843
33	0.0	-0.0002437311942739251	-0.0024524012556428965
34	0.0	-0.0002171335122815198	-0.0023278091607252605
35	0.0	-0.00019355625285913947	-0.0018533626249128857
36	0.0	-0.00017053925654906266	-0.0015275350650178735
37	0.0	-0.00014769372148876195	-0.0013801599048708236
38	0.0	-0.0001262286234722576	-0.001245565800834578
39	0.0	-0.00010194063754728644	-0.0010220203904505473
40	0.0	-7.903837977547567e-05	-0.0008574060826416652
41	0.0	-5.2966605683412205e-05	-0.0007091655010599287
42	0.0	-2.8329372928028725e-05	-0.000545490764683283
43	0.0	-6.018605034628948e-06	-0.0005201669235495331
44	0.0	0.0	-0.0003867353524636066
45	0.0	0.0	-0.00022666459323773415
46	0.0	0.0	2.8437216631678856e-05
47	0.0	0.0	0.0001351961021835538
48	0.0	0.0	0.0003554639675043344
49	0.0	0.0	0.0006101438541592681
50	0.0	0.0	0.0007076024796143221
51	0.0	0.0	0.0011132103718575603
52	0.0	0.0	0.0012090912818364789
53	0.0	0.0	0.001322360665353153
54	0.0	5.80642404627074e-06	0.0013769420821119964
55	0.0	2.8119664597115093e-05	0.0014613865605472291
56	0.0	4.632317391747524e-05	0.0015000390083914899
57	0.0	6.539127062384015e-05	0.0016223723544506628
58	0.0	8.849370428908097e-05	0.001802611648834178
59	0.0	0.00010936582602350418	0.0021180464291566036
60	0.0	0.00012987889924422893	0.0022450593769933755
61	0.0	0.00015544115626914715	0.002824219439569588
62	0.0	0.0001764283635109631	0.002886333211046535
63	0.0	0.00020136390488570313	0.003020712741835483
64	0.0	0.0002204786629186106	0.00305174056158652
65	0.0	0.0002448442194786795	0.0032058760429430223
66	0.0	0.0002720042208522114	0.0034084726063267692
67	0.0	0.0002966044243733435	0.003432351864900134
68	0.0	0.00032565773630780756	0.003724096531037233
69	0.0	0.0003519067241771644	0.003747479287665189
70	0.0	0.00038126004744456446	0.004055184134557674
71	0.0	0.0004059263983843287	0.004234407786310509
72	0.0	0.00043537391856561124	0.004511608931506882
73	0.0	0.00046144946690787505	0.004667747262958477
74	0.0	0.0004973122396792904	0.004750956872818839
75	0.0	0.0005314204840737857	0.005347624218440594
76	0.0	0.0005626731382366046	0.005580723276593433
77	0.0	0.0005939603359384726	0.005675053509511128
78	0.0	0.0006281052140835368	0.005932452746969313
79	0.0	0.000667954032886775	0.006096838317992675
80	0.0	0.0007059239126773866	0.006180506492319848
81	0.0	0.0007460360167972914	0.006248538271529314
82	0.0	0.0007848439098347625	0.006418705224764393
83	0.0	0.0008264776101177151	0.006500723082097667
84	0.0	0.000872138105057312	0.007323724803633419
85	0.0	0.0009244919482251145	0.007657919206699724
86	0.0	0.0009791027326659307	0.007756801147180435
87	0.0	0.0010299252140547632	0.008361810808253082
88	0.0	0.0010991312283233515	0.009005634189691643
89	0.0	0.0011562371292098766	0.009700046081988663
90	0.0	0.001228438398583376	0.010157845867299986
91	0.0	0.001308722525712995	0.01131408071544586
92	0.0	0.0014126257060049776	0.01253333287192318
93	0.0	0.0015147100546789628	0.013312951893436013
94	0.0	0.0016275060530532132	0.013699643055203244
95	0.0	0.001764916667571303	0.014707225485181729
96	0.0	0.0019152242390160004	0.01502389568344865
97	0.0	0.002145497255373672	0.015427368237833146
98	0.0	0.002456616836586231	0.01605794569728235
99	0.0	0.003054638025536462	0.030441462642560327
100	0.0029560533403403255	0.012536444055845974	0.037733308541128885
